Division,WeightClassKg,Place,Name,Team,BodyweightKg,Best3SquatKg,Best3BenchKg,Best3DeadliftKg,TotalKg,Equipment,Event,Sex
Girls,44.23,1,Ashley Martinez,Edinburg Idea College Prep,43.14,124.74,54.43,142.88,322.05,Single-ply,SBD,F
Girls,44.23,2,Samantha Sanchez,Natalia,43.32,127.01,65.77,124.74,317.51,Single-ply,SBD,F
Girls,44.23,3,Lexus Gutierrez,Mathis,43.27,117.93,58.97,129.27,306.17,Single-ply,SBD,F
Girls,44.23,4,Adriana Villafuerte,Edinburg Idea College Prep,43.82,124.74,54.43,120.2,299.37,Single-ply,SBD,F
Girls,44.23,5,Betsy Ramirez,Winnsboro,43.64,115.67,68.04,113.4,297.1,Single-ply,SBD,F
Girls,44.23,6,Jaci Thornton,Lone Oak,43.54,115.67,61.23,115.67,292.57,Single-ply,SBD,F
Girls,44.23,7,Amber Gallegos,San Diego,42.18,113.4,56.7,102.06,272.16,Single-ply,SBD,F
Girls,44.23,8,Kei Kei Walker,Malakoff,43.77,104.33,40.82,124.74,269.89,Single-ply,SBD,F
Girls,44.23,9,Rosario Labrada,Whitesboro,44.23,99.79,58.97,111.13,269.89,Single-ply,SBD,F
Girls,44.23,10,Gabby Zarate,San Diego,43.27,95.25,49.9,120.2,265.35,Single-ply,SBD,F
Girls,44.23,11,Savannah Sandoval,Santa Gertrudis Academy,43.32,102.06,49.9,113.4,265.35,Single-ply,SBD,F
Girls,44.23,12,Jacqueline Pena,Edinburg Idea College Prep,43.86,106.59,43.09,113.4,263.08,Single-ply,SBD,F
Girls,44.23,13,Julia Owens,Natalia,43.91,102.06,52.16,102.06,256.28,Single-ply,SBD,F
Girls,44.23,14,Johaly Perez,Little River Academy,41.5,99.79,52.16,99.79,251.74,Single-ply,SBD,F
Girls,44.23,15,Lesette Munoz,Mathis,43.73,97.52,49.9,102.06,249.48,Single-ply,SBD,F
Girls,44.23,16,Valery Cano,Edinburg Idea College Prep,42.41,102.06,36.29,104.33,242.67,Single-ply,SBD,F
Girls,44.23,17,Aiyeem Kelton,Sunnyvale,42.68,90.72,47.63,102.06,240.4,Single-ply,SBD,F
Girls,44.23,18,Katelyn Espinosa,Early,44.23,95.25,49.9,90.72,235.87,Single-ply,SBD,F
Girls,44.23,19,Andrea Cervantes,Big Lake Reagan County,43.09,95.25,40.82,97.52,233.6,Single-ply,SBD,F
Girls,44.23,20,Kristal Rodriguez,Dilley,43.73,90.72,54.43,83.91,229.06,Single-ply,SBD,F
Girls,44.23,21,Yoselin Miranda,Woodville,44,88.45,47.63,92.99,229.06,Single-ply,SBD,F
Girls,44.23,22,Alice Cogburn,Slaton,43.64,79.38,38.56,104.33,222.26,Single-ply,SBD,F
Girls,44.23,DQ,Maura Fentress,Woodville,41.87,88.45,,,,Single-ply,SBD,F
Girls,44.23,DQ,Catalyna Mata,San Antonio Brooks Academy,44.04,108.86,,,,Single-ply,SBD,F
Girls,47.85,1,Heav'nly Noriega,Tulia,46.36,136.08,65.77,129.27,331.12,Single-ply,SBD,F
Girls,47.85,2,Annika Nittmo,Winnsboro,47.67,127.01,63.5,133.81,324.32,Single-ply,SBD,F
Girls,47.85,3,Alexia Dy,San Antonio Cole,46.67,129.27,54.43,138.35,322.05,Single-ply,SBD,F
Girls,47.85,4,Hannah Robinson,Buna,45.09,120.2,63.5,133.81,317.51,Single-ply,SBD,F
Girls,47.85,5,Reina de la Paz,Santa Gertrudis Academy,47.31,122.47,63.5,131.54,317.51,Single-ply,SBD,F
Girls,47.85,6,Jordan Paredes,Sonora,47.81,131.54,65.77,120.2,317.51,Single-ply,SBD,F
Girls,47.85,7,Nyelli Garza,Hebbronville,46.63,131.54,52.16,131.54,315.25,Single-ply,SBD,F
Girls,47.85,8,Vanessa Vega,Skidmore-Tynan,47.4,127.01,68.04,120.2,315.25,Single-ply,SBD,F
Girls,47.85,9,Bryanna Perez,Natalia,47.67,124.74,65.77,120.2,310.71,Single-ply,SBD,F
Girls,47.85,10,Anastasia Rodriguez,Natalia,47.4,117.93,68.04,113.4,299.37,Single-ply,SBD,F
Girls,47.85,11,Kaylee Bolyard,Hemphill,46.31,104.33,58.97,127.01,290.3,Single-ply,SBD,F
Girls,47.85,12,Megan Bailey,Karnes City,45.99,113.4,56.7,117.93,288.03,Single-ply,SBD,F
Girls,47.85,13,Hailey Nunez,Wichita Falls City View,46.9,111.13,56.7,115.67,283.5,Single-ply,SBD,F
Girls,47.85,14,Lily Buckley,Lago Vista,46.63,108.86,52.16,106.59,267.62,Single-ply,SBD,F
Girls,47.85,15,Shelby Wilson,Palacios,45.99,102.06,43.09,104.33,249.48,Single-ply,SBD,F
Girls,47.85,16,Megan Irion,Pottsboro,47.26,79.38,38.56,86.18,204.12,Single-ply,SBD,F
Girls,47.85,DQ,Summer Champion,Rogers,46.9,106.59,61.23,,,Single-ply,SBD,F
Girls,47.85,DQ,Chesney Richards,Corsicana Mildred,47.81,102.06,63.5,,,Single-ply,SBD,F
Girls,47.85,DQ,Samantha Garcia,Whitney,46.4,,,,,Single-ply,SBD,F
Girls,51.94,1,Liszette Ortiz-Rosado,San Antonio Brooks Academy,51.53,161.03,88.45,151.95,401.43,Single-ply,SBD,F
Girls,51.94,2,Caitlin Berry,Bishop,51.26,140.61,86.18,131.54,358.34,Single-ply,SBD,F
Girls,51.94,3,Aaliyah Portales,Big Lake Reagan County,49.67,129.27,63.5,136.08,328.85,Single-ply,SBD,F
Girls,51.94,4,Allie Boehlar,Paris Chisum,50.53,131.54,65.77,129.27,326.59,Single-ply,SBD,F
Girls,51.94,5,Hailey Northcutt,Lago Vista,51.48,131.54,72.57,122.47,326.59,Single-ply,SBD,F
Girls,51.94,6,Lexi Mounger,Lone Oak,49.58,129.27,70.31,124.74,324.32,Single-ply,SBD,F
Girls,51.94,7,Laine Parker,Rogers,50.35,122.47,70.31,122.47,315.25,Single-ply,SBD,F
Girls,51.94,8,Taylor Netherton,Early,49.44,115.67,70.31,122.47,308.44,Single-ply,SBD,F
Girls,51.94,9,Traci Vickers,Sonora,50.85,124.74,58.97,120.2,303.91,Single-ply,SBD,F
Girls,51.94,10,Rhiannon Spaulding,Farmersville,51.39,117.93,63.5,113.4,294.84,Single-ply,SBD,F
Girls,51.94,11,Rachel Greve,Van Alstyne,51.3,117.93,56.7,117.93,292.57,Single-ply,SBD,F
Girls,51.94,12,Marian Gomez,Palacios,50.26,115.67,54.43,115.67,285.76,Single-ply,SBD,F
Girls,51.94,13,Hanna Richison,Winnsboro,50.35,102.06,61.23,122.47,285.76,Single-ply,SBD,F
Girls,51.94,14,Jenna Kana,El Maton Tidehaven,51.94,111.13,52.16,108.86,272.16,Single-ply,SBD,F
Girls,51.94,DQ,Noelia Delgado,Whitney,50.44,,,,,Single-ply,SBD,F
Girls,51.94,DQ,Shannon Carpenter,Lago Vista,51.75,,,,,Single-ply,SBD,F
Girls,51.94,DQ,Luisa Soto,White Oak,51.66,,,,,Single-ply,SBD,F
Girls,56.02,1,Bailey Pastrano,San Diego,55.25,149.69,81.65,145.15,376.48,Single-ply,SBD,F
Girls,56.02,2,Alicia Dennis,Kemp,54.07,154.22,77.11,142.88,374.21,Single-ply,SBD,F
Girls,56.02,3,Cristy Gonzalez,Edinburg Idea College Prep,55.52,138.35,79.38,147.42,365.14,Single-ply,SBD,F
Girls,56.02,4,Karla Fuentes,Winnsboro,54.2,133.81,72.57,154.22,360.61,Single-ply,SBD,F
Girls,56.02,5,Carolina Flores,Hebbronville,54.34,149.69,72.57,136.08,358.34,Single-ply,SBD,F
Girls,56.02,6,Phaidra Malcher,Poth,54.43,140.61,79.38,136.08,356.07,Single-ply,SBD,F
Girls,56.02,7,Shay Kotulek,Leonard,55.29,133.81,90.72,124.74,349.27,Single-ply,SBD,F
Girls,56.02,8,Madison Salinas,Hebbronville,55.7,142.88,58.97,142.88,344.73,Single-ply,SBD,F
Girls,56.02,9,Makayla Salaiz,San Diego,56.02,142.88,77.11,124.74,344.73,Single-ply,SBD,F
Girls,56.02,10,Taylor Jones,Little River Academy,53.75,120.2,81.65,138.35,340.19,Single-ply,SBD,F
Girls,56.02,11,Destinie Small,San Antonio Cole,53.39,127.01,61.23,145.15,333.39,Single-ply,SBD,F
Girls,56.02,12,Stephanie Benavides,Cotulla,55.02,136.08,61.23,136.08,333.39,Single-ply,SBD,F
Girls,56.02,13,Savannah Barnett,Hemphill,54.79,122.47,81.65,120.2,324.32,Single-ply,SBD,F
Girls,56.02,14,Jazmin Estrada,San Antonio Brooks Academy,54.48,129.27,63.5,129.27,322.05,Single-ply,SBD,F
Girls,56.02,15,Cierra Reyes,Brady,56.02,131.54,63.5,124.74,319.78,Single-ply,SBD,F
Girls,56.02,16,Yesenia Rocha,San Antonio Cole,54.2,111.13,61.23,145.15,317.51,Single-ply,SBD,F
Girls,56.02,17,Taivionna Daniels,Hitchcock,55.34,117.93,52.16,136.08,306.17,Single-ply,SBD,F
Girls,56.02,18,Haily Trevino,Winnie East Chambers,54.66,124.74,47.63,129.27,301.64,Single-ply,SBD,F
Girls,56.02,19,Grace Wilcox,Leonard,55.75,117.93,68.04,115.67,301.64,Single-ply,SBD,F
Girls,56.02,20,Oralia Cardenas,Slaton,55.16,113.4,56.7,124.74,294.84,Single-ply,SBD,F
Girls,56.02,DQ,Noelia Tovar,Sonora,54.34,,,,,Single-ply,SBD,F
Girls,56.02,DQ,Selene Vargas,Cameron Yoe,53.66,,,,,Single-ply,SBD,F
Girls,60.1,1,Alyssa Hill,Van Alstyne,57.92,167.83,83.91,170.1,421.84,Single-ply,SBD,F
Girls,60.1,2,Alessandra Ruiz,Dilley,59.47,170.1,79.38,163.29,412.77,Single-ply,SBD,F
Girls,60.1,3,Hallie Brinson,Early,59.69,158.76,95.25,151.95,405.97,Single-ply,SBD,F
Girls,60.1,4,Julianna Morales,Natalia,58.15,156.49,102.06,131.54,390.09,Single-ply,SBD,F
Girls,60.1,5,Jayci Rubicheaux,Buna,59.78,149.69,81.65,145.15,376.48,Single-ply,SBD,F
Girls,60.1,6,Danie Jones,Winnsboro,59.47,140.61,88.45,142.88,371.95,Single-ply,SBD,F
Girls,60.1,7,Lilly Perez,Palmer,58.51,149.69,68.04,140.61,358.34,Single-ply,SBD,F
Girls,60.1,8,Katie York,Troup,58.83,154.22,77.11,124.74,356.07,Single-ply,SBD,F
Girls,60.1,9,LaGloria Campbell,New Boston,57.11,149.69,68.04,136.08,353.8,Single-ply,SBD,F
Girls,60.1,10,Kinzie Williams,Winnsboro,60.06,138.35,74.84,133.81,347,Single-ply,SBD,F
Girls,60.1,11,Bianca Jimenez,Dimmitt,58.74,127.01,79.38,136.08,342.46,Single-ply,SBD,F
Girls,60.1,12,Kaitlyn McCarter,Paris Chisum,59.38,129.27,70.31,140.61,340.19,Single-ply,SBD,F
Girls,60.1,13,Amanda Imes,Watauga Harvest Christian Academy,58.01,127.01,72.57,120.2,319.78,Single-ply,SBD,F
Girls,60.1,14,Sydney Finney,Clifton,59.47,120.2,61.23,133.81,315.25,Single-ply,SBD,F
Girls,60.1,NS,Clarissa Hernandez,Dimmitt,,,,,,Single-ply,SBD,F
Girls,60.1,DQ,Ariana Garay,El Maton Tidehaven,60.1,,,,,Single-ply,SBD,F
Girls,67.36,1,Nallely Gutierrez,San Antonio Brooks Academy,67.27,176.9,124.74,183.7,485.34,Single-ply,SBD,F
Girls,67.36,2,Keisha Walker,Buna,66.86,149.69,70.31,179.17,399.16,Single-ply,SBD,F
Girls,67.36,3,Jessie Pessin,Lago Vista,66.45,167.83,74.84,154.22,396.89,Single-ply,SBD,F
Girls,67.36,4,Raquel Balderas,Blooming Grove,64.95,142.88,92.99,147.42,383.29,Single-ply,SBD,F
Girls,67.36,5,Eliana Carrillo,San Diego,65.05,158.76,79.38,145.15,383.29,Single-ply,SBD,F
Girls,67.36,6,Dezarea Perez,Natalia,65.82,151.95,74.84,151.95,378.75,Single-ply,SBD,F
Girls,67.36,7,Sydnee Shea,Early,65.05,156.49,88.45,131.54,376.48,Single-ply,SBD,F
Girls,67.36,8,Abby Esquivel,Mathis,64.86,149.69,74.84,149.69,374.21,Single-ply,SBD,F
Girls,67.36,9,Tristyn Boone,Lone Oak,65.86,158.76,70.31,145.15,374.21,Single-ply,SBD,F
Girls,67.36,10,Emily Cox,Bowie,64.27,154.22,77.11,136.08,367.41,Single-ply,SBD,F
Girls,67.36,11,Bethany Alexander,Kemp,65.63,158.76,74.84,131.54,365.14,Single-ply,SBD,F
Girls,67.36,12,Carlee Gearinger,Pottsboro,66.86,147.42,74.84,136.08,358.34,Single-ply,SBD,F
Girls,67.36,13,Alexia Cadena,San Diego,65.14,145.15,68.04,142.88,356.07,Single-ply,SBD,F
Girls,67.36,14,Meranda Segura,Karnes City,62.55,151.95,65.77,133.81,351.53,Single-ply,SBD,F
Girls,67.36,15,Angela Corley,San Angelo Grape Creek,67.22,151.95,63.5,129.27,344.73,Single-ply,SBD,F
Girls,67.36,16,Morgan Kent,Dublin,63.19,138.35,81.65,122.47,342.46,Single-ply,SBD,F
Girls,67.36,17,Rachael Smith,Winnie East Chambers,60.37,122.47,49.9,111.13,283.5,Single-ply,SBD,F
Girls,67.36,NS,Andrea Cuevas,Dimmitt,,,,,,Single-ply,SBD,F
Girls,67.36,DQ,Shaylea Boles,Malakoff,65.41,,,,,Single-ply,SBD,F
Girls,67.36,DQ,Kenley Windle,Mount Pleasant Chapel Hill,64.77,142.88,,,,Single-ply,SBD,F
Girls,75.07,1,Karina Avila,Hebbronville,74.39,204.12,97.52,163.29,464.93,Single-ply,SBD,F
Girls,75.07,2,Allie Blasingame,Early,72.39,183.7,77.11,174.63,435.45,Single-ply,SBD,F
Girls,75.07,3,T'Nia Sample,San Antonio Cole,67.4,181.44,88.45,161.03,430.91,Single-ply,SBD,F
Girls,75.07,4,Mercedes Rodriguez,San Diego,72.39,181.44,86.18,158.76,426.38,Single-ply,SBD,F
Girls,75.07,5,Rakel Aguero,Jourdanton,74.25,170.1,99.79,149.69,419.57,Single-ply,SBD,F
Girls,75.07,6,Rosie Trejo,Pilot Point,70.31,161.03,83.91,165.56,410.5,Single-ply,SBD,F
Girls,75.07,7,Kyndall Hill,Trinity,75.07,158.76,86.18,163.29,408.23,Single-ply,SBD,F
Girls,75.07,8,Loren Chavez,San Antonio Brooks Academy,73.71,151.95,104.33,149.69,405.97,Single-ply,SBD,F
Girls,75.07,9,Abigale Evans,Tulia,70.85,165.56,74.84,145.15,385.55,Single-ply,SBD,F
Girls,75.07,10,Tia Hart,Vanderbilt Industrial,73.66,154.22,88.45,142.88,385.55,Single-ply,SBD,F
Girls,75.07,11,Hannah Junek,Little River Academy,74.66,158.76,88.45,138.35,385.55,Single-ply,SBD,F
Girls,75.07,12,Lorena Mirafuentes,Blooming Grove,73.8,145.15,95.25,142.88,383.29,Single-ply,SBD,F
Girls,75.07,13,Millenia Rodriguez,Brady,70.17,145.15,79.38,142.88,367.41,Single-ply,SBD,F
Girls,75.07,14,Adriana Carrillo,Friona,72.71,158.76,74.84,131.54,365.14,Single-ply,SBD,F
Girls,75.07,NS,Shamaurie Williams,El Maton Tidehaven,,,,,,Single-ply,SBD,F
Girls,75.07,DQ,Kinley Liska,Karnes City,72.03,151.95,,,,Single-ply,SBD,F
Girls,75.07,DQ,Catrina Soto,Skidmore-Tynan,73.44,174.63,95.25,,,Single-ply,SBD,F
Girls,75.07,DQ,Lexi Towery,Nocona,71.89,,,,,Single-ply,SBD,F
Girls,82.33,1,Marissa Lutz,Lone Oak,79.92,208.65,124.74,181.44,514.83,Single-ply,SBD,F
Girls,82.33,2,Alexis Gallegos,San Diego,79.42,204.12,127.01,163.29,494.42,Single-ply,SBD,F
Girls,82.33,3,Priscilla Garza,Edinburg Idea College Prep,80.56,192.78,92.99,147.42,433.18,Single-ply,SBD,F
Girls,82.33,4,Brianna Guillen,San Diego,80.69,176.9,90.72,154.22,421.84,Single-ply,SBD,F
Girls,82.33,5,Carrington Davis,Bowie,79.65,167.83,99.79,142.88,410.5,Single-ply,SBD,F
Girls,82.33,6,Brittney Stafford,Hebbronville,80.6,165.56,92.99,147.42,405.97,Single-ply,SBD,F
Girls,82.33,7,Kristen Lewis,Buna,80.33,174.63,68.04,145.15,387.82,Single-ply,SBD,F
Girls,82.33,8,Olivia Martinez,Sonora,76.66,167.83,65.77,147.42,381.02,Single-ply,SBD,F
Girls,82.33,9,Kamryn Kettler,Clifton,78.97,151.95,61.23,165.56,378.75,Single-ply,SBD,F
Girls,82.33,10,Cassie Castro,Poth,79.2,158.76,68.04,151.95,378.75,Single-ply,SBD,F
Girls,82.33,11,Desiree Vega,El Maton Tidehaven,80.2,154.22,79.38,145.15,378.75,Single-ply,SBD,F
Girls,82.33,12,Kamelia Navarette,Crane,78.65,147.42,65.77,131.54,344.73,Single-ply,SBD,F
Girls,82.33,13,Ellie Ryan,Early,80.1,136.08,72.57,133.81,342.46,Single-ply,SBD,F
Girls,82.33,14,Jenna Eugster,Whitesboro,79.38,136.08,77.11,127.01,340.19,Single-ply,SBD,F
Girls,82.33,DQ,Radiance Willis,Blooming Grove,79.42,,,,,Single-ply,SBD,F
Girls,82.33,DQ,Tyler Pyburn,Blooming Grove,79.2,145.15,,,,Single-ply,SBD,F
Girls,90.04,1,Taylor Strmiska,Little River Academy,89.36,229.06,149.69,199.58,578.33,Single-ply,SBD,F
Girls,90.04,2,Gen Tyson,Van Alstyne,87.95,226.8,97.52,165.56,489.88,Single-ply,SBD,F
Girls,90.04,3,Gwyn Tyson,Van Alstyne,87.77,213.19,95.25,147.42,455.86,Single-ply,SBD,F
Girls,90.04,4,Martha Riojas,Dublin,87.86,204.12,97.52,142.88,444.52,Single-ply,SBD,F
Girls,90.04,5,Sabrina Gonzales,Dimmitt,88.59,197.31,70.31,172.37,439.98,Single-ply,SBD,F
Girls,90.04,6,Bekah Parks,Teague,85.41,188.24,95.25,154.22,437.72,Single-ply,SBD,F
Girls,90.04,7,Hailey Jacobs,Winona,87.86,185.97,79.38,163.29,428.64,Single-ply,SBD,F
Girls,90.04,8,Raini Goodell,Eustace,88.81,165.56,102.06,158.76,426.38,Single-ply,SBD,F
Girls,90.04,9,Veronica Villareal,Early,87.59,176.9,102.06,142.88,421.84,Single-ply,SBD,F
Girls,90.04,10,Harlie Guerra,Bishop,82.37,174.63,90.72,147.42,412.77,Single-ply,SBD,F
Girls,90.04,11,Haily Petty,Sadler S & S Cons,89.68,172.37,79.38,158.76,410.5,Single-ply,SBD,F
Girls,90.04,12,Amanda Vasquez,Skidmore-Tynan,86.55,147.42,72.57,167.83,387.82,Single-ply,SBD,F
Girls,90.04,13,Emily Moreno,Malakoff,88.9,158.76,81.65,140.61,381.02,Single-ply,SBD,F
Girls,90.04,14,Jocelyn Watson,Hemphill,87.59,151.95,79.38,147.42,378.75,Single-ply,SBD,F
Girls,90.04,15,Cheyenne Martinez,Dilley,86.95,183.7,68.04,115.67,367.41,Single-ply,SBD,F
Girls,90.04,16,Bree Smith,Tuscola Jim Ned,85.09,129.27,63.5,136.08,328.85,Single-ply,SBD,F
Girls,90.04,17,Anisa Rodriguez,El Maton Tidehaven,88.04,131.54,54.43,140.61,326.59,Single-ply,SBD,F
Girls,90.04,18,Eryanna Copeland,Hitchcock,83.87,113.4,70.31,122.47,306.17,Single-ply,SBD,F
Girls,90.04,DQ,Abby Hernandez,San Diego,89.36,136.08,97.52,,,Single-ply,SBD,F
Girls,100.02,1,Marie Coon,Buna,95.93,229.06,124.74,190.51,544.31,Single-ply,SBD,F
Girls,100.02,2,Jennifer Lozano,Hebbronville,98.29,222.26,113.4,167.83,503.49,Single-ply,SBD,F
Girls,100.02,3,Cheyenne Meyer,Bruceville-Eddy,94.17,190.51,111.13,199.58,501.22,Single-ply,SBD,F
Girls,100.02,4,Madi Wilbanks,Malakoff,96.62,215.46,106.59,163.29,485.34,Single-ply,SBD,F
Girls,100.02,5,Harleigh McEnturff,Elkhart,94.39,181.44,99.79,167.83,449.06,Single-ply,SBD,F
Girls,100.02,6,Sierra Caro,Falfurrias,98.97,192.78,88.45,149.69,430.91,Single-ply,SBD,F
Girls,100.02,7,Priscilla Tovar,Lyford,,167.83,77.11,158.76,403.7,Single-ply,SBD,F
Girls,100.02,8,Jalyce Dennis,Troup,92.9,156.49,90.72,151.95,399.16,Single-ply,SBD,F
Girls,100.02,9,Shakendra Snell,Trinity,95.21,151.95,108.86,138.35,399.16,Single-ply,SBD,F
Girls,100.02,10,Christina Peterson,Palacios,92.53,161.03,79.38,142.88,383.29,Single-ply,SBD,F
Girls,100.02,11,Erika Lowry,Gladewater Sabine,92.8,147.42,90.72,142.88,381.02,Single-ply,SBD,F
Girls,100.02,12,Jacque Marquez,Alpine,91.44,138.35,92.99,133.81,365.14,Single-ply,SBD,F
Girls,100.02,DQ,Maggie Conlon,Troy,99.34,179.17,104.33,,,Single-ply,SBD,F
Girls,100.02,DQ,McKayla Weaver,Henrietta,91.81,,,,,Single-ply,SBD,F
Girls,100.02,DQ,Luz Arreola,Kermit,95.03,,,,,Single-ply,SBD,F
Girls,100.02,DQ,Jacie Doyle,Leonard,90.72,142.88,79.38,,,Single-ply,SBD,F
Girls,117.71,1,Kinsey Lane,Tolar,116.39,233.6,90.72,204.12,528.44,Single-ply,SBD,F
Girls,117.71,2,Samantha Heimer,San Antonio Brooks Academy,107.73,213.19,163.29,149.69,526.17,Single-ply,SBD,F
Girls,117.71,3,McKaylen Drake,Rogers,113.67,199.58,115.67,158.76,474,Single-ply,SBD,F
Girls,117.71,4,Erica Graybill,Bruceville-Eddy,113.17,185.97,102.06,172.37,460.4,Single-ply,SBD,F
Girls,117.71,5,Tiffany Goranson,Edna,101.7,201.85,79.38,174.63,455.86,Single-ply,SBD,F
Girls,117.71,6,Melanie Morales,Edinburg Idea College Prep,106.55,195.04,88.45,167.83,451.32,Single-ply,SBD,F
Girls,117.71,7,Mattie Harmon,Winnie East Chambers,100.79,197.31,95.25,156.49,449.06,Single-ply,SBD,F
Girls,117.71,8,Zuri Garcia,Pollok Central,114.21,199.58,92.99,154.22,446.79,Single-ply,SBD,F
Girls,117.71,9,Alyssah Cunningham,Buna,115.71,163.29,102.06,138.35,403.7,Single-ply,SBD,F
Girls,117.71,10,Kayle Chapman,Leonard,107.23,147.42,83.91,142.88,374.21,Single-ply,SBD,F
Girls,117.71,11,Daisey Narvaez,Big Lake Reagan County,109.5,176.9,77.11,120.2,374.21,Single-ply,SBD,F
Girls,117.71,12,Katlin Parks,Coleman,112.67,158.76,70.31,136.08,365.14,Single-ply,SBD,F
Girls,117.71,13,Izabella Medrano,Sadler S & S Cons,110.45,158.76,74.84,122.47,356.07,Single-ply,SBD,F
Girls,117.71,DQ,Halee McCaslin,Corsicana Mildred,102.29,,,,,Single-ply,SBD,F
Girls,117.71+,1,Hailie Morehead,Franklin,142.38,238.14,90.72,206.38,535.24,Single-ply,SBD,F
Girls,117.71+,2,Monika Morales,Edinburg Idea College Prep,118.57,233.6,124.74,149.69,508.02,Single-ply,SBD,F
Girls,117.71+,3,Haylee McAdoo,Whitesboro,146.15,217.72,117.93,163.29,498.95,Single-ply,SBD,F
Girls,117.71+,4,Andrea Beasley,Kemp,119.75,226.8,104.33,158.76,489.88,Single-ply,SBD,F
Girls,117.71+,5,Victoria Gonzalez,Cotulla,122.79,197.31,102.06,185.97,485.34,Single-ply,SBD,F
Girls,117.71+,6,Macey Townsend,Buna,119.39,197.31,95.25,179.17,471.74,Single-ply,SBD,F
Girls,117.71+,7,Daejanay Bell,Cameron Yoe,123.15,213.19,102.06,149.69,464.93,Single-ply,SBD,F
Girls,117.71+,8,Aubry Carr,Rogers,126.78,204.12,104.33,151.95,460.4,Single-ply,SBD,F
Girls,117.71+,9,Hannah Ryan,Groesbeck,136.12,192.78,95.25,167.83,455.86,Single-ply,SBD,F
Girls,117.71+,10,Amber Maldonado,Slaton,124.51,167.83,79.38,138.35,385.55,Single-ply,SBD,F
Girls,117.71+,11,Mariela Garcia,Pollok Central,134.58,181.44,72.57,131.54,385.55,Single-ply,SBD,F
Girls,117.71+,12,Arlene Solis,Dimmitt,118.75,136.08,49.9,127.01,312.98,Single-ply,SBD,F
Girls,117.71+,NS,Gracie Smith,Farmersville,,,,,,Single-ply,SBD,F
Girls,117.71+,DQ,DeAndra Hinton,Brady,168.55,183.7,,,,Single-ply,SBD,F
