Division,WeightClassKg,Place,Name,Team,BodyweightKg,Best3SquatKg,Best3BenchKg,Best3DeadliftKg,TotalKg,Equipment,Event,Sex
Boys,51.71,1,Carlos Raya,Plainview,51.53,129.27,92.99,133.81,356.07,Single-ply,SBD,M
Boys,55.79,2,Anthony Washington,Plainview,51.89,127.01,68.04,142.88,337.93,Single-ply,SBD,M
Boys,51.71,3,Nick Garcia,Tolar,51.35,86.18,54.43,117.93,258.55,Single-ply,SBD,M
Boys,51.71,4,Wyatt Ivey,Lometa,50.44,83.91,49.9,106.59,240.4,Single-ply,SBD,M
Boys,51.71,5,Kyle Jaynes,Rising Star,46.27,72.57,45.36,95.25,213.19,Single-ply,SBD,M
Boys,51.71,DQ,Armando Alvarado,Castleberry,50.8,,,,,Single-ply,SBD,M
Boys,51.71,DQ,Alejandro Cosio,Fort Worth North Side,51.71,,,,,Single-ply,SBD,M
Boys,51.71,DQ,Clint Mayo,Stephenville,51.71,77.11,,,,Single-ply,SBD,M
Boys,59.87,1,Marcus Griffith,Lometa,56.02,95.25,56.7,111.13,263.08,Single-ply,SBD,M
Boys,55.79,2,Charles Thompson,Cross Plains,55.7,99.79,56.7,104.33,260.82,Single-ply,SBD,M
Boys,55.79,3,Lance Winebrinner,Millsap,52.8,81.65,63.5,108.86,254.01,Single-ply,SBD,M
Boys,59.87,DQ,Zane Ponder,Plainview,55.88,154.22,70.31,,,Single-ply,SBD,M
Boys,55.79,DQ,Austin Carter,Rio Vista,53.61,,,,,Single-ply,SBD,M
Boys,55.79,DQ,Isidro Bahena,Dublin,55.52,,,,,Single-ply,SBD,M
Boys,59.87,1,Shirmar Jennings,Plainview,56.88,192.78,106.59,201.85,501.22,Single-ply,SBD,M
Boys,59.87,2,Justus Alaniz,Lometa,59.15,140.61,83.91,142.88,367.41,Single-ply,SBD,M
Boys,59.87,3,Jonathan Taylor,Stephenville,56.97,136.08,65.77,151.95,353.8,Single-ply,SBD,M
Boys,67.13,4,Justin Little,Strawn,60.06,122.47,77.11,136.08,335.66,Single-ply,SBD,M
Boys,59.87,5,Roque Bautista,Rio Vista,57.06,124.74,68.04,136.08,328.85,Single-ply,SBD,M
Boys,59.87,6,Jack Young #5,Stephenville,59.87,111.13,74.84,133.81,319.78,Single-ply,SBD,M
Boys,67.13,7,Abraham Cervantes,Castleberry,60.06,86.18,70.31,127.01,283.5,Single-ply,SBD,M
Boys,67.13,1,Walker Shelton,Tolar,66.5,199.58,108.86,199.58,508.02,Single-ply,SBD,M
Boys,74.84,2,Oscar Orozco,Castleberry,67.22,158.76,106.59,195.04,460.4,Single-ply,SBD,M
Boys,67.13,3,Codie Pair,Rice,60.33,142.88,122.47,176.9,442.25,Single-ply,SBD,M
Boys,67.13,4,Osvaldo Solis,Rice,67.04,181.44,86.18,142.88,410.5,Single-ply,SBD,M
Boys,67.13,5,Bryan Ortiz,Castleberry,66.41,156.49,86.18,142.88,385.55,Single-ply,SBD,M
Boys,74.84,6,Griffin Balthrop,Castleberry,67.22,136.08,81.65,145.15,362.87,Single-ply,SBD,M
Boys,67.13,7,Dakotah Martinez,Stephenville,61.23,129.27,92.99,136.08,358.34,Single-ply,SBD,M
Boys,67.13,8,Tim Dorris,Strawn,61.42,136.08,61.23,145.15,342.46,Single-ply,SBD,M
Boys,67.13,9,Anthony Garcia,Strawn,61.33,124.74,77.11,136.08,337.93,Single-ply,SBD,M
Boys,67.13,10,Fernando Rodriguez,Fort Worth North Side,63.05,106.59,61.23,154.22,322.05,Single-ply,SBD,M
Boys,67.13,11,Stephen Saltus,Cross Plains,66.32,108.86,72.57,127.01,308.44,Single-ply,SBD,M
Boys,67.13,DQ,Tristan Lachapelle,Rice,65.5,170.1,106.59,,,Single-ply,SBD,M
Boys,74.84,1,Zack Ponder,Plainview,74.84,208.65,102.06,204.12,514.83,Single-ply,SBD,M
Boys,74.84,2,Jesus Padilla,Fort Worth North Side,74.39,190.51,122.47,190.51,503.49,Single-ply,SBD,M
Boys,74.84,3,Jose Lopez,Gustine,73.39,181.44,113.4,195.04,489.88,Single-ply,SBD,M
Boys,74.84,4,Chad Heitman,Stephenville,72.57,179.17,122.47,172.37,474,Single-ply,SBD,M
Boys,74.84,5,Josue Hernandez,Fort Worth North Side,74.39,165.56,95.25,199.58,460.4,Single-ply,SBD,M
Boys,74.84,6,Abel Ledesma,Comanche,67.68,172.37,95.25,185.97,453.59,Single-ply,SBD,M
Boys,74.84,7,Jesse Luker,Comanche,70.4,174.63,102.06,174.63,451.32,Single-ply,SBD,M
Boys,74.84,8,Dylan Burton,Millsap,70.4,163.29,90.72,163.29,417.3,Single-ply,SBD,M
Boys,74.84,9,Landon Reeves,Stephenville,68.95,174.63,83.91,147.42,405.97,Single-ply,SBD,M
Boys,74.84,10,Daniel Sánchez,Rising Star,68.67,129.27,104.33,167.83,401.43,Single-ply,SBD,M
Boys,74.84,11,Phoeniz Sanders,Cross Plains,73.66,149.69,86.18,154.22,390.09,Single-ply,SBD,M
Boys,74.84,12,Dalton Gilliam,Cross Plains,73.75,142.88,79.38,158.76,381.02,Single-ply,SBD,M
Boys,74.84,13,Zach Gartman,Cross Plains,70.67,142.88,74.84,151.95,369.68,Single-ply,SBD,M
Boys,74.84,14,Reed Lane,Stephenville,70.76,136.08,86.18,147.42,369.68,Single-ply,SBD,M
Boys,74.84,15,Keifer Steinle,Cross Plains,72.12,140.61,90.72,136.08,367.41,Single-ply,SBD,M
Boys,74.84,16,Armando Aguilar,Gustine,70.58,124.74,86.18,136.08,347,Single-ply,SBD,M
Boys,74.84,DQ,Sam Cannon,Stephenville,73.94,113.4,56.7,127.01,,Single-ply,SBD,M
Boys,74.84,DQ,Chris Atchley,Rice,74.66,,,,,Single-ply,SBD,M
Boys,74.84,DQ,Fidel Perez,Dublin,73.66,170.1,,,,Single-ply,SBD,M
Boys,74.84,DQ,Tim Landers,Castleberry,72.94,,,,,Single-ply,SBD,M
Boys,74.84,DQ,Nathan Langston,Tolar,72.76,161.03,,,,Single-ply,SBD,M
Boys,82.1,1,Domingo Saucedo,Plainview,82.1,222.26,142.88,213.19,578.33,Single-ply,SBD,M
Boys,82.1,2,Salvador Marquez,Comanche,79.65,210.92,127.01,226.8,564.72,Single-ply,SBD,M
Boys,89.81,3,Eric Maldonado,Castleberry,82.19,188.24,122.47,195.04,505.76,Single-ply,SBD,M
Boys,82.1,4,Colton Bigham,Millsap,79.92,163.29,108.86,181.44,453.59,Single-ply,SBD,M
Boys,82.1,5,Gordon Lewis,Tolar,79.65,142.88,90.72,176.9,410.5,Single-ply,SBD,M
Boys,82.1,6,Garrett Crew,Stephenville,76.2,154.22,92.99,149.69,396.89,Single-ply,SBD,M
Boys,82.1,7,Jose Martinez,Rising Star,75.39,140.61,99.79,154.22,394.63,Single-ply,SBD,M
Boys,82.1,8,Martin Herrera,Comanche,77.47,127.01,83.91,154.22,365.14,Single-ply,SBD,M
Boys,82.1,9,Michael Robinson,Millsap,79.56,72.57,54.43,79.38,206.38,Single-ply,SBD,M
Boys,82.1,DQ,Saul Lopez,Comanche,81.47,,,,,Single-ply,SBD,M
Boys,82.1,DQ,Jacob Harper,Stephenville,78.02,129.27,,,,Single-ply,SBD,M
Boys,82.1,DQ,Dallen Gray,Stephenville,81.19,86.18,,,,Single-ply,SBD,M
Boys,89.81,1,Federico Castro,Plainview,88.72,217.72,131.54,222.26,571.53,Single-ply,SBD,M
Boys,89.81,2,Christian Galvan,Plainview,89.18,222.26,142.88,192.78,557.92,Single-ply,SBD,M
Boys,89.81,3,Rudy Rodriguez,Dublin,84.55,210.92,113.4,210.92,535.24,Single-ply,SBD,M
Boys,89.81,4,Garrett Tanner,Stephenville,88.9,201.85,129.27,197.31,528.44,Single-ply,SBD,M
Boys,89.81,5,Ethan Barnes,Plainview,89.18,195.04,115.67,213.19,523.9,Single-ply,SBD,M
Boys,89.81,6,Ryan Baugh,Stephenville,83.91,165.56,120.2,192.78,478.54,Single-ply,SBD,M
Boys,89.81,7,Arnulfo Ramirez,Fort Worth North Side,84.01,158.76,95.25,192.78,446.79,Single-ply,SBD,M
Boys,89.81,8,Damien Hatcher,Dublin,85.91,165.56,115.67,165.56,446.79,Single-ply,SBD,M
Boys,89.81,9,Alejandro Rodriguez,Dublin,87.27,158.76,111.13,161.03,430.91,Single-ply,SBD,M
Boys,89.81,10,Josue Olvera,Stephenville,84.82,154.22,92.99,163.29,410.5,Single-ply,SBD,M
Boys,89.81,11,Garrett Hight,Gustine,85.37,124.74,72.57,165.56,362.87,Single-ply,SBD,M
Boys,89.81,12,Barret Baker,Rio Vista,89.18,113.4,61.23,136.08,310.71,Single-ply,SBD,M
Boys,89.81,DQ,Tristan Teplicek,Rising Star,85.73,136.08,86.18,,,Single-ply,SBD,M
Boys,89.81,DQ,Roberto Gurrola,Stephenville,87.09,97.52,,,,Single-ply,SBD,M
Boys,99.79,1,Zayne Gumler,Tolar,94.08,242.67,115.67,249.48,607.81,Single-ply,SBD,M
Boys,99.79,2,Erik Mendez,Plainview,98.79,219.99,115.67,226.8,562.45,Single-ply,SBD,M
Boys,99.79,3,Aiden Lopez,Plainview,98.52,208.65,120.2,229.06,557.92,Single-ply,SBD,M
Boys,99.79,4,Aaron Platt,Tolar,94.17,213.19,136.08,195.04,544.31,Single-ply,SBD,M
Boys,99.79,5,Ambrosio Rodriguez,Dublin,94.98,201.85,124.74,210.92,537.51,Single-ply,SBD,M
Boys,99.79,6,Victor Hernandez,Strawn,98.25,181.44,113.4,195.04,489.88,Single-ply,SBD,M
Boys,99.79,7,Jacob Martin,Stephenville,92.71,181.44,111.13,185.97,478.54,Single-ply,SBD,M
Boys,99.79,8,Clayton Greenwell,Tolar,95.98,181.44,115.67,163.29,460.4,Single-ply,SBD,M
Boys,99.79,9,Justin Wade,Stephenville,93.44,147.42,108.86,199.58,455.86,Single-ply,SBD,M
Boys,99.79,10,Marcus Lopez,Strawn,91.99,181.44,102.06,170.1,453.59,Single-ply,SBD,M
Boys,99.79,11,Zach Thompson,Cross Plains,93.98,151.95,74.84,136.08,362.87,Single-ply,SBD,M
Boys,99.79,12,Brock McDaniel,Millsap,94.8,131.54,90.72,136.08,358.34,Single-ply,SBD,M
Boys,109.77,1,Tyler Ferguson,Stephenville,108.41,206.38,142.88,197.31,546.58,Single-ply,SBD,M
Boys,109.77,2,Mitchell Coker,Millsap,101.24,199.58,127.01,204.12,530.7,Single-ply,SBD,M
Boys,109.77,3,Max Jones,Stephenville,106.14,170.1,115.67,174.63,460.4,Single-ply,SBD,M
Boys,109.77,4,Brice Norris,Tolar,108.95,170.1,108.86,158.76,437.72,Single-ply,SBD,M
Boys,109.77,5,Luis Escamilla,Gustine,102.06,170.1,106.59,149.69,426.38,Single-ply,SBD,M
Boys,109.77,6,Trace Boyd,Strawn,102.42,163.29,99.79,142.88,405.97,Single-ply,SBD,M
Boys,109.77,7,Gunner Bradley,Lometa,109.32,156.49,86.18,158.76,401.43,Single-ply,SBD,M
Boys,109.77,8,Kyle Waling,Lometa,105.51,145.15,86.18,147.42,378.75,Single-ply,SBD,M
Boys,109.77,DQ,Justin Smith,Rice,102.78,,,,,Single-ply,SBD,M
Boys,109.77,DQ,Preston Posulc,Cross Plains,101.33,,,,,Single-ply,SBD,M
Boys,124.74,1,Matt Diaz,Stephenville,122.02,249.48,183.7,226.8,659.98,Single-ply,SBD,M
Boys,124.74,2,Jeff King,Cross Plains,115.85,249.48,136.08,197.31,582.87,Single-ply,SBD,M
Boys,124.74,3,Dylan Driver,Stephenville,111.13,226.8,124.74,190.51,542.04,Single-ply,SBD,M
Boys,124.74,4,Creed Alexander,Stephenville,121.56,192.78,111.13,188.24,492.15,Single-ply,SBD,M
Boys,124.74,5,Daniel Demilo,Stephenville,118.39,167.83,102.06,156.49,426.38,Single-ply,SBD,M
Boys,124.74,DQ,Raul Rocha,Stephenville,122.02,215.46,,,,Single-ply,SBD,M
Boys,124.74,DQ,Michael Williams,Dublin,124.47,251.74,,,,Single-ply,SBD,M
Boys,124.74+,1,Bryan Manley,Stephenville,131.54,224.53,145.15,201.85,571.53,Single-ply,SBD,M
Boys,124.74+,2,Cameron Reynolds,Stephenville,128.82,204.12,136.08,192.78,532.97,Single-ply,SBD,M
Boys,124.74+,3,Dempsey Dorris,Strawn,139.71,204.12,113.4,192.78,510.29,Single-ply,SBD,M
Boys,124.74+,DQ,Jordan Kilcrease,Stephenville,138.35,,,,,Single-ply,SBD,M
