Division,WeightClassKg,Place,Name,Team,BodyweightKg,Best3SquatKg,Best3BenchKg,Best3DeadliftKg,TotalKg,Equipment,Event,Sex
Girls,44.23,1,Kaitlynn Gonzalez,Robstown,43.82,111.13,47.63,122.47,281.23,Single-ply,SBD,F
Girls,44.23,2,Alexis Iglesias,Port Lavaca Calhoun,43.64,90.72,58.97,102.06,251.74,Single-ply,SBD,F
Girls,44.23,3,Allison Luna,Agua Dulce,43.73,65.77,31.75,83.91,181.44,Single-ply,SBD,F
Girls,44.23,4,Feliciana Pena,Mathis,41.82,58.97,38.56,79.38,176.9,Single-ply,SBD,F
Girls,44.23,5,Nattalie Lopez,Aransas Pass,44.18,34.02,20.41,52.16,106.59,Single-ply,SBD,F
Girls,44.23,DQ,Mari Lopez,Corpus Christi West Oso,41.55,,,,,Single-ply,SBD,F
Girls,44.23,DQ,Victoria Ruiz,Hebbronville,44,,,,,Single-ply,SBD,F
Girls,44.23,DQ,Miranda Ortriz,Santa Gertrudis Academy,43.73,,,,,Single-ply,SBD,F
Girls,47.85,1,Reina de la Paz,Santa Gertrudis Academy,47.63,108.86,65.77,136.08,310.71,Single-ply,SBD,F
Girls,47.85,2,Salma Anaya-Martinez,Port Lavaca Calhoun,47.36,115.67,61.23,117.93,294.84,Single-ply,SBD,F
Girls,47.85,3,Brandy Deleon,Mathis,47.45,115.67,56.7,108.86,281.23,Single-ply,SBD,F
Girls,47.85,4,Lesette Munoz,Mathis,47.81,102.06,56.7,115.67,274.42,Single-ply,SBD,F
Girls,47.85,5,Ananda Lopez,Robstown,47.81,102.06,40.82,106.59,249.48,Single-ply,SBD,F
Girls,47.85,6,Aryana Hernandez,Mathis,47.26,88.45,43.09,95.25,226.8,Single-ply,SBD,F
Girls,47.85,7,Emma Garza,Freer,46.81,77.11,52.16,95.25,224.53,Single-ply,SBD,F
Girls,47.85,8,Felicity Ramirez,Hebbronville,47.81,90.72,36.29,92.99,219.99,Single-ply,SBD,F
Girls,47.85,9,Joanna Florez,Agua Dulce,46.81,77.11,34.02,97.52,208.65,Single-ply,SBD,F
Girls,47.85,10,Lociney Figueroa,Alice,46.81,68.04,34.02,83.91,185.97,Single-ply,SBD,F
Girls,47.85,DQ,Leanna Rodriguez,Alice,47.72,104.33,47.63,,,Single-ply,SBD,F
Girls,51.94,1,Present May,Port Lavaca Calhoun,51.07,156.49,70.31,138.35,365.14,Single-ply,SBD,F
Girls,51.94,2,Mel Ry,Port Lavaca Calhoun,51.17,113.4,77.11,124.74,315.25,Single-ply,SBD,F
Girls,51.94,3,Dashae Atkinson,Hebbronville,51.53,113.4,65.77,122.47,301.64,Single-ply,SBD,F
Girls,51.94,4,Sarah Castillo,Corpus Christi West Oso,51.17,95.25,47.63,102.06,244.94,Single-ply,SBD,F
Girls,51.94,5,Alex Quiroz,Bishop,48.63,83.91,38.56,97.52,219.99,Single-ply,SBD,F
Girls,51.94,6,Mia Garza,Bishop,51.07,81.65,43.09,81.65,206.38,Single-ply,SBD,F
Girls,51.94,7,Haileylashay Buerro,Banquete,50.62,56.7,34.02,83.91,174.63,Single-ply,SBD,F
Girls,51.94,8,Andrea Ojeda,Alice,51.44,61.23,31.75,70.31,163.29,Single-ply,SBD,F
Girls,51.94,DQ,Kesney Dunlevy,Ingleside,51.35,,,,,Single-ply,SBD,F
Girls,51.94,DQ,Kara Smith,Port Lavaca Calhoun,51.17,,,,,Single-ply,SBD,F
Girls,51.94,DQ,Angela Esparza,Robstown,51.89,106.59,61.23,,,Single-ply,SBD,F
Girls,56.02,1,Skyleigh Sears,Port Lavaca Calhoun,55.97,167.83,86.18,158.76,412.77,Single-ply,SBD,F
Girls,56.02,2,Caitlin Berry,Bishop,52.53,147.42,95.25,145.15,387.82,Single-ply,SBD,F
Girls,56.02,3,Eh Nay Gay Hso,Port Lavaca Calhoun,54.34,142.88,58.97,127.01,328.85,Single-ply,SBD,F
Girls,56.02,4,Lauren Garza,Freer,54.98,133.81,61.23,129.27,324.32,Single-ply,SBD,F
Girls,56.02,5,Geraldine Tafolla,Port Lavaca Calhoun,54.88,122.47,61.23,127.01,310.71,Single-ply,SBD,F
Girls,56.02,6,Zoey Cappleman,Ingleside,55.43,113.4,56.7,129.27,299.37,Single-ply,SBD,F
Girls,56.02,7,Bethany Dorantes,Corpus Christi West Oso,52.25,111.13,54.43,124.74,290.3,Single-ply,SBD,F
Girls,56.02,8,Iliana Cortinas,Robstown,55.16,113.4,49.9,102.06,265.35,Single-ply,SBD,F
Girls,56.02,9,Miranda Lopez,Alice,55.43,106.59,52.16,106.59,265.35,Single-ply,SBD,F
Girls,56.02,10,Iliana Garza,Santa Gertrudis Academy,54.34,106.59,43.09,111.13,260.82,Single-ply,SBD,F
Girls,56.02,11,Melina Vela,Alice,55.61,92.99,49.9,113.4,256.28,Single-ply,SBD,F
Girls,56.02,12,Samantha Diaz,Bishop,55.97,104.33,45.36,104.33,254.01,Single-ply,SBD,F
Girls,56.02,13,Briana Quezada,Corpus Christi West Oso,54.25,99.79,43.09,95.25,238.14,Single-ply,SBD,F
Girls,56.02,14,Chelsey Wood,Port Lavaca Calhoun,55.34,95.25,43.09,95.25,233.6,Single-ply,SBD,F
Girls,56.02,15,Abby Garcia,Agua Dulce,54.52,86.18,38.56,106.59,231.33,Single-ply,SBD,F
Girls,56.02,16,Kyla Beard,Corpus Christi London,55.97,86.18,43.09,102.06,231.33,Single-ply,SBD,F
Girls,56.02,17,Hailey Figueroa,Alice,54.98,88.45,43.09,90.72,222.26,Single-ply,SBD,F
Girls,56.02,18,Laylah Nevarez,Hebbronville,55.16,88.45,49.9,81.65,219.99,Single-ply,SBD,F
Girls,56.02,19,Kacie Cazalas,Corpus Christi London,53.25,74.84,38.56,77.11,190.51,Single-ply,SBD,F
Girls,56.02,20,Samera Perez,Benavides,55.52,36.29,31.75,65.77,133.81,Single-ply,SBD,F
Girls,56.02,DQ,Crissy Falcon,Santa Gertrudis Academy,55.43,83.91,40.82,,,Single-ply,SBD,F
Girls,60.1,1,Madison Lopez,Hebbronville,60.06,127.01,63.5,117.93,308.44,Single-ply,SBD,F
Girls,60.1,2,Annointiyae Beasley,Odem,58.97,113.4,52.16,129.27,294.84,Single-ply,SBD,F
Girls,60.1,3,Mea Villarreal,Mathis,58.51,106.59,65.77,120.2,292.57,Single-ply,SBD,F
Girls,60.1,4,Lindzee Garza,Robstown,56.25,102.06,49.9,120.2,272.16,Single-ply,SBD,F
Girls,60.1,5,Evelyn Guerra,Benavides,60.06,97.52,47.63,122.47,267.62,Single-ply,SBD,F
Girls,60.1,6,Gabreilla Ramos,Robstown,59.69,92.99,52.16,108.86,254.01,Single-ply,SBD,F
Girls,60.1,7,Clarissa Marroquin,Odem,58.42,97.52,43.09,86.18,226.8,Single-ply,SBD,F
Girls,60.1,8,Christianna Romero,Ingleside,58.06,70.31,31.75,88.45,190.51,Single-ply,SBD,F
Girls,60.1,9,Makayla Sorro,Aransas Pass,58.06,54.43,43.09,68.04,165.56,Single-ply,SBD,F
Girls,60.1,DQ,Raina Rivera,Bishop,59.33,142.88,,,,Single-ply,SBD,F
Girls,60.1,DQ,Precious Garza,Corpus Christi West Oso,58.79,,,,,Single-ply,SBD,F
Girls,60.1,DQ,Emma Brice,Orange Grove,56.15,122.47,54.43,,,Single-ply,SBD,F
Girls,67.36,1,Abbie Etzler,Port Lavaca Calhoun,66.95,133.81,70.31,131.54,335.66,Single-ply,SBD,F
Girls,67.36,2,Kirstyn Garza,Agua Dulce,63.87,127.01,47.63,131.54,306.17,Single-ply,SBD,F
Girls,67.36,3,Nyla Gomez,Agua Dulce,65.5,106.59,58.97,131.54,297.1,Single-ply,SBD,F
Girls,67.36,4,Sadie Lopez,Corpus Christi West Oso,66.32,115.67,49.9,131.54,297.1,Single-ply,SBD,F
Girls,67.36,5,Mary Ruff,Ingleside,66.5,113.4,61.23,117.93,292.57,Single-ply,SBD,F
Girls,67.36,6,Sam Pacheco,Robstown,60.42,102.06,54.43,108.86,265.35,Single-ply,SBD,F
Girls,67.36,7,Julisa Ruiz,Alice,61.69,104.33,52.16,104.33,260.82,Single-ply,SBD,F
Girls,67.36,8,Maisie Garcia,Alice,63.96,97.52,49.9,104.33,251.74,Single-ply,SBD,F
Girls,67.36,9,Teyva Tipton,Corpus Christi West Oso,62.78,97.52,47.63,104.33,249.48,Single-ply,SBD,F
Girls,67.36,10,Madison Flores,Mathis,64.41,106.59,45.36,97.52,249.48,Single-ply,SBD,F
Girls,67.36,11,Gabrielle Ramirez,Corpus Christi West Oso,66.5,104.33,38.56,102.06,244.94,Single-ply,SBD,F
Girls,67.36,12,Allison Vasquez,Benavides,60.87,92.99,36.29,113.4,242.67,Single-ply,SBD,F
Girls,67.36,13,Lourdes Rodriguez,Robstown,60.33,88.45,40.82,104.33,233.6,Single-ply,SBD,F
Girls,67.36,14,Cassandra Morelda,Alice,63.23,92.99,40.82,97.52,231.33,Single-ply,SBD,F
Girls,67.36,15,Lynette Guerra,Benavides,64.59,70.31,47.63,106.59,224.53,Single-ply,SBD,F
Girls,67.36,16,Lauren Sahadi,Corpus Christi London,60.69,77.11,31.75,102.06,210.92,Single-ply,SBD,F
Girls,67.36,17,Sophia Sanchez,Corpus Christi London,64.23,74.84,36.29,86.18,197.31,Single-ply,SBD,F
Girls,67.36,18,October Depperman,Aransas Pass,66.5,74.84,29.48,83.91,188.24,Single-ply,SBD,F
Girls,75.07,1,Faith Rios,Mathis,69.22,156.49,65.77,145.15,367.41,Single-ply,SBD,F
Girls,75.07,2,Nee Hso,Port Lavaca Calhoun,71.4,161.03,68.04,138.35,367.41,Single-ply,SBD,F
Girls,75.07,3,Beatrice Garcia,Bishop,73.03,156.49,63.5,140.61,360.61,Single-ply,SBD,F
Girls,75.07,4,Hel Koo,Port Lavaca Calhoun,70.03,140.61,65.77,127.01,333.39,Single-ply,SBD,F
Girls,75.07,5,Ysabella Munoz,Alice,70.85,133.81,49.9,147.42,331.12,Single-ply,SBD,F
Girls,75.07,6,Leandra Moreno,Ingleside,73.75,129.27,58.97,142.88,331.12,Single-ply,SBD,F
Girls,75.07,7,Gisel Cobarrubias,Robstown,74.21,129.27,61.23,133.81,324.32,Single-ply,SBD,F
Girls,75.07,8,Katya Garza-Rodriguez,Port Lavaca Calhoun,69.85,124.74,63.5,133.81,322.05,Single-ply,SBD,F
Girls,75.07,9,Selina Castillo,Santa Gertrudis Academy,72.12,106.59,58.97,142.88,308.44,Single-ply,SBD,F
Girls,75.07,10,Maidson Moreno,Odem,72.12,117.93,49.9,122.47,290.3,Single-ply,SBD,F
Girls,75.07,11,Aubrey Benavidez,Santa Gertrudis Academy,72.03,111.13,58.97,113.4,283.5,Single-ply,SBD,F
Girls,75.07,12,Norma Galvan,Hebbronville,68.86,113.4,56.7,108.86,278.96,Single-ply,SBD,F
Girls,75.07,13,Kassandra Ramon,Banquete,73.94,108.86,54.43,113.4,276.69,Single-ply,SBD,F
Girls,75.07,14,Kassidy Lee,Orange Grove,73.94,104.33,36.29,99.79,240.4,Single-ply,SBD,F
Girls,75.07,15,Miranda Martinez,Odem,74.84,106.59,40.82,92.99,240.4,Single-ply,SBD,F
Girls,75.07,DQ,Madalyn Hernandez,Santa Gertrudis Academy,73.84,72.57,,,,Single-ply,SBD,F
Girls,82.33,1,Karaleena Ruiz,Hebbronville,78.83,142.88,61.23,147.42,351.53,Single-ply,SBD,F
Girls,82.33,2,Taylor Ramirez,Sinton,82.01,147.42,65.77,131.54,344.73,Single-ply,SBD,F
Girls,82.33,3,Makayla Johnson,Santa Gertrudis Academy,81.47,131.54,68.04,142.88,342.46,Single-ply,SBD,F
Girls,82.33,4,Vivian Galindo,Port Lavaca Calhoun,79.56,140.61,72.57,124.74,337.93,Single-ply,SBD,F
Girls,82.33,5,Kaitlyn Munoz,Bishop,79.56,136.08,61.23,131.54,328.85,Single-ply,SBD,F
Girls,82.33,6,Zoe Urrea,Banquete,78.02,127.01,56.7,129.27,312.98,Single-ply,SBD,F
Girls,82.33,7,Kathryn Edwards,Sinton,77.29,120.2,56.7,129.27,306.17,Single-ply,SBD,F
Girls,82.33,8,Zoe Salinas,Alice,82.1,102.06,52.16,108.86,263.08,Single-ply,SBD,F
Girls,82.33,9,Linda Garcia,Aransas Pass,75.66,92.99,43.09,113.4,249.48,Single-ply,SBD,F
Girls,82.33,10,Laressa Rodriguez,Santa Gertrudis Academy,82.19,90.72,45.36,106.59,242.67,Single-ply,SBD,F
Girls,82.33,11,Kathryn Benavides,Alice,75.75,92.99,47.63,92.99,233.6,Single-ply,SBD,F
Girls,82.33,12,Gabriella Valdez,Aransas Pass,77.38,77.11,45.36,83.91,206.38,Single-ply,SBD,F
Girls,82.33,13,Ally Suarez,Aransas Pass,78.38,74.84,43.09,63.5,181.44,Single-ply,SBD,F
Girls,82.33,DQ,Emily Ortiz,Orange Grove,82.19,127.01,,,,Single-ply,SBD,F
Girls,82.33,DQ,Jocelin Agnew,Ingleside,80.92,113.4,,,,Single-ply,SBD,F
Girls,90.04,1,Harlie Guerra,Bishop,86.64,181.44,104.33,154.22,439.98,Single-ply,SBD,F
Girls,90.04,2,Kennedi Butcher,Port Lavaca Calhoun,87.27,158.76,95.25,172.37,426.38,Single-ply,SBD,F
Girls,90.04,3,Marivel Perez,Mathis,84.91,142.88,77.11,149.69,369.68,Single-ply,SBD,F
Girls,90.04,4,Jessica Morales,Odem,86.91,154.22,70.31,133.81,358.34,Single-ply,SBD,F
Girls,90.04,5,Sunette Garza,Santa Gertrudis Academy,84.82,136.08,54.43,145.15,335.66,Single-ply,SBD,F
Girls,90.04,6,Jasmin Martinez,Aransas Pass,83.64,129.27,43.09,129.27,301.64,Single-ply,SBD,F
Girls,90.04,7,Mikayla Esparza,Bishop,87.91,136.08,56.7,106.59,299.37,Single-ply,SBD,F
Girls,90.04,8,Aislinn Gonzales,Alice,88.99,131.54,43.09,115.67,290.3,Single-ply,SBD,F
Girls,100.02,1,Katrina Marshall,Hebbronville,94.08,133.81,68.04,127.01,328.85,Single-ply,SBD,F
Girls,100.02,2,Madison Vela,Odem,92.53,106.59,54.43,104.33,265.35,Single-ply,SBD,F
Girls,100.02,3,Emma Martinez,Aransas Pass,95.98,61.23,52.16,92.99,206.38,Single-ply,SBD,F
Girls,100.02,4,Jocline Martinez,Aransas Pass,98.52,49.9,31.75,86.18,167.83,Single-ply,SBD,F
Girls,100.02,DQ,Ashley Trejo,Alice,95.07,,,,,Single-ply,SBD,F
Girls,117.71,1,Ebony Vega,Mathis,115.3,226.8,95.25,174.63,496.68,Single-ply,SBD,F
Girls,117.71,2,Davae Martinez,Corpus Christi West Oso,101.24,161.03,79.38,138.35,378.75,Single-ply,SBD,F
Girls,117.71,3,Maribelle Mendieta,Sinton,105.51,138.35,61.23,108.86,308.44,Single-ply,SBD,F
Girls,117.71,4,Katie Gonzales,Mathis,104.6,120.2,56.7,127.01,303.91,Single-ply,SBD,F
Girls,117.71,DQ,Deaundra Torres,Sinton,114.76,90.72,,,,Single-ply,SBD,F
Girls,117.71+,1,Alayna Searcy,Port Lavaca Calhoun,125.37,215.46,102.06,142.88,460.4,Single-ply,SBD,F
Girls,117.71+,2,Bethany Gonzales,Santa Gertrudis Academy,147.33,172.37,102.06,174.63,449.06,Single-ply,SBD,F
Girls,117.71+,3,Meela Garza,Alice,142.52,142.88,79.38,142.88,365.14,Single-ply,SBD,F
Girls,117.71+,4,Katelyn Pratz,Mathis,133.45,113.4,52.16,115.67,281.23,Single-ply,SBD,F
Girls,117.71+,5,Katie Villegas,Aransas Pass,117.84,45.36,43.09,61.23,149.69,Single-ply,SBD,F
