Name,WeightClassKg,Division,Sex,Age,Best3SquatKg,Best3BenchKg,Best3DeadliftKg,TotalKg,Event,Equipment,Place
H. Zechmeister,,Masters,F,84,50,35,97.5,182.5,SBD,Single-ply,3
R. O'Neal,,Masters,F,44,85,55,82.5,222.5,SBD,Single-ply,2
K. McCall,,Masters,F,38,97.5,45,105,247.5,SBD,Single-ply,1
Rachel Mathias,58.5,Open,F,,132.5,95,160,387.5,SBD,Single-ply,1
S. Emerson,58.5,Open,F,,115,60,140,315,SBD,Single-ply,2
L. Armendariz,58.5,Open,F,,117.5,60,137.5,315,SBD,Single-ply,3
A. Kruppenbacher,63,Open,F,,152.5,70,147.5,370,SBD,Single-ply,1
A. Doyle,63,Open,F,,107.5,50,135,292.5,SBD,Single-ply,2
E. Terra,70,Open,F,,110,50,137.5,297.5,SBD,Single-ply,1
K. Hibbard,80,Open,F,,140,70,155,365,SBD,Single-ply,1
S. Bell,80+,Open,F,,140,72.5,160,372.5,SBD,Single-ply,1
D. Jackson,80+,Open,F,,105,62.5,130,297.5,SBD,Single-ply,2
J. Vargas,80+,Open,F,,97.5,55,140,292.5,SBD,Single-ply,3
J. Vera,52,Open,M,,150,110,195,455,SBD,Single-ply,1
D. Seymour,52,Open,M,,90,60,110,260,SBD,Single-ply,2
Jon Arenberg,56,Open,M,,180,130,200,510,SBD,Single-ply,1
B. Vilner,56,Open,M,,127.5,102.5,167.5,397.5,SBD,Single-ply,2
K. Fujioka,60,Open,M,,177.5,115,217.5,510,SBD,Single-ply,1
M. Hara,60,Open,M,,120,85,175,380,SBD,Single-ply,2
T. Jones,67.5,Open,M,,220,157.5,237.5,615,SBD,Single-ply,1
B. Uyeoka,67.5,Open,M,,195,135,205,535,SBD,Single-ply,2
O. Guillen,67.5,Open,M,,185,127.5,197.5,510,SBD,Single-ply,3
D. Winslow,67.5,Open,M,,160,112.5,202.5,475,SBD,Single-ply,4
J. Stanley,67.5,Open,M,,150,120,200,470,SBD,Single-ply,5
D. Romer,67.5,Open,M,,162.5,97.5,187.5,447.5,SBD,Single-ply,6
M. Hernandez,67.5,Open,M,,160,102.5,172.5,435,SBD,Single-ply,7
L. Inamine,67.5,Open,M,,235,,,,SBD,Single-ply,DQ
J. Murray,67.5,Open,M,,155,,,,SBD,Single-ply,DQ
David Ricks,75,Open,M,,277.5,165,275,717.5,SBD,Single-ply,1
R. Barter,75,Open,M,,247.5,155,272.5,675,SBD,Single-ply,2
J. Moylan,75,Open,M,,225,120,230,575,SBD,Single-ply,3
S. Saito,75,Open,M,,205,155,215,575,SBD,Single-ply,4
S. Francomacaro,75,Open,M,,185,132.5,217.5,535,SBD,Single-ply,5
J. Narcisco,75,Open,M,,175,130,205,510,SBD,Single-ply,6
T. Porter,75,Open,M,,177.5,105,205,487.5,SBD,Single-ply,7
E. Brodit,75,Open,M,,182.5,100,195,477.5,SBD,Single-ply,8
B. Greenstreet,75,Open,M,,160,87.5,172.5,420,SBD,Single-ply,9
Richard Cirigliano,75,Open,M,,220,140,,,SBD,Single-ply,DQ
Dan McLaughlin,82.5,Open,M,,250,165,260,675,SBD,Single-ply,1
S. Waits,82.5,Open,M,,260,160,250,670,SBD,Single-ply,2
J. Bernazzani,82.5,Open,M,,255,155,235,645,SBD,Single-ply,3
C. Powers,82.5,Open,M,,235,157.5,250,642.5,SBD,Single-ply,4
G. Fujino,82.5,Open,M,,225,167.5,242.5,635,SBD,Single-ply,5
H. Fultz,82.5,Open,M,,205,160,230,595,SBD,Single-ply,6
T. Adams,82.5,Open,M,,195,132.5,220,547.5,SBD,Single-ply,7
C. Hoskins,82.5,Open,M,,175,120,227.5,522.5,SBD,Single-ply,8
M. Hurley,82.5,Open,M,,165,115,200,480,SBD,Single-ply,9
M. Zainer,82.5,Open,M,,155,115,190,460,SBD,Single-ply,11
V. Antonowicz,82.5,Open,M,,185,95,175,455,SBD,Single-ply,12
B. Sanborn,82.5,Open,M,,120,97.5,182.5,400,SBD,Single-ply,13
C. Ferrando,82.5,Open,M,,65,137.5,275,477.5,SBD,Single-ply,10
C. Wright,82.5,Open,M,,227.5,,,,SBD,Single-ply,DQ
V. Banks,90,Open,M,,285,165,272.5,722.5,SBD,Single-ply,1
R. Glass,90,Open,M,,250,162.5,257.5,670,SBD,Single-ply,2
M. Pennington,90,Open,M,,222.5,165,260,647.5,SBD,Single-ply,3
L. Reali,90,Open,M,,242.5,140,265,647.5,SBD,Single-ply,4
C. Hirota,90,Open,M,,225,147.5,275,647.5,SBD,Single-ply,5
D. Davis,90,Open,M,,227.5,155,255,637.5,SBD,Single-ply,6
C. Quinn,90,Open,M,,250,132.5,235,617.5,SBD,Single-ply,7
R. Ellis,90,Open,M,,222.5,132.5,245,600,SBD,Single-ply,8
I. Hahesy,90,Open,M,,217.5,137.5,240,595,SBD,Single-ply,9
A. Long,90,Open,M,,187.5,120,217.5,525,SBD,Single-ply,10
D. Linck,90,Open,M,,187.5,132.5,200,520,SBD,Single-ply,11
R. Erum,90,Open,M,,227.5,,,,SBD,Single-ply,DQ
Timothy Williams,100,Open,M,,302.5,187.5,297.5,787.5,SBD,Single-ply,1
Mike Gessini,100,Open,M,,260,212.5,247.5,720,SBD,Single-ply,2
G. Joel,100,Open,M,,235,170,250,655,SBD,Single-ply,3
P. Quinn,100,Open,M,,245,140,235,620,SBD,Single-ply,4
E. Howard,100,Open,M,,227.5,145,245,617.5,SBD,Single-ply,5
T. Gramatovich,100,Open,M,,235,145,227.5,607.5,SBD,Single-ply,6
J. Saldana,100,Open,M,,260,,,,SBD,Single-ply,DQ
Kevin Fisher,110,Open,M,,300,175,327.5,802.5,SBD,Single-ply,1
Lewis Luke,110,Open,M,,300,197.5,305,802.5,SBD,Single-ply,2
Tom Gilman,110,Open,M,,257.5,162.5,267.5,687.5,SBD,Single-ply,3
M. Cunningham,110,Open,M,,240,160,272.5,672.5,SBD,Single-ply,4
E. Stocker,110,Open,M,,232.5,147.5,257.5,637.5,SBD,Single-ply,5
S. Seumalo,110,Open,M,,212.5,157.5,227.5,597.5,SBD,Single-ply,6
Manny Burruel,125,Open,M,,337.5,185,327.5,850,SBD,Single-ply,1
C. Anderson,125,Open,M,,290,192.5,295,777.5,SBD,Single-ply,2
B. Martin,125,Open,M,,250,200,285,735,SBD,Single-ply,3
A. Corea,125,Open,M,,260,167.5,260,687.5,SBD,Single-ply,4
D. Dallmeyer,125,Open,M,,255,155,272.5,682.5,SBD,Single-ply,5
G. Bach,125,Open,M,,265,135,250,650,SBD,Single-ply,6
E. Woodburn,125,Open,M,,240,105,245,590,SBD,Single-ply,7
R. Shepard,125+,Open,M,,300,237.5,292.5,830,SBD,Single-ply,1
S. Millard,125+,Open,M,,297.5,195,287.5,780,SBD,Single-ply,2
R. Harries,125+,Open,M,,227.5,205,220,652.5,SBD,Single-ply,3
M. Bowman,125+,Open,M,,165,150,205,520,SBD,Single-ply,4
D. Ashford,125+,Open,M,,200,110,200,510,SBD,Single-ply,5
