Division,WeightClassKg,Place,Name,Team,BodyweightKg,Best3SquatKg,Best3BenchKg,Best3DeadliftKg,TotalKg,Equipment,Event,Sex
Boys,51.71,1,Diego Rivera,Mexia,49.08,115.67,65.77,113.4,294.84,Single-ply,SBD,M
Boys,51.71,2,Corbin Donoho,Corsicana Mildred,51.26,92.99,56.7,113.4,263.08,Single-ply,SBD,M
Boys,51.71,3,Micah Thompson,Teague,47.99,88.45,52.16,95.25,235.87,Single-ply,SBD,M
Boys,51.71,4,Trey Northcutt,Ferris,47.36,72.57,38.56,99.79,210.92,Single-ply,SBD,M
Boys,51.71,5,Will Hooten,Red Oak Life,41.73,86.18,45.36,77.11,208.65,Single-ply,SBD,M
Boys,51.71,6,Beax Elrod,Ferris,48.26,61.23,29.48,81.65,172.37,Single-ply,SBD,M
Boys,55.79,1,Arturo Jimenez,Ferris,54.61,142.88,65.77,149.69,358.34,Single-ply,SBD,M
Boys,55.79,2,Chase Kirby,Dawson,55.52,127.01,72.57,136.08,335.66,Single-ply,SBD,M
Boys,59.87,3,Darius Jones,Dallas Life Oak Cliff,55.97,120.2,61.23,142.88,324.32,Single-ply,SBD,M
Boys,59.87,3,Darius Jones,Dallas Life Oak Cliff,55.97,120.2,61.23,142.88,324.32,Single-ply,SBD,M
Boys,55.79,4,Juan Sanchez,Mexia,53.98,117.93,70.31,133.81,322.05,Single-ply,SBD,M
Boys,55.79,5,Alec Bailey,Mexia,53.71,117.93,61.23,129.27,308.44,Single-ply,SBD,M
Boys,55.79,6,Ryder Tucker,Milford,55.7,108.86,49.9,113.4,272.16,Single-ply,SBD,M
Boys,55.79,DQ,Bordie Cantu,Dawson,53.25,,,,,Single-ply,SBD,M
Boys,59.87,1,Cody McQueen,Fairfield,57.7,99.79,58.97,127.01,285.76,Single-ply,SBD,M
Boys,59.87,2,Kyler Tinsely,Teague,56.15,113.4,56.7,113.4,283.5,Single-ply,SBD,M
Boys,59.87,3,Ty Hamilton,Italy,57.61,102.06,45.36,106.59,254.01,Single-ply,SBD,M
Boys,59.87,4,Hunter Robinson,Ferris,59.6,97.52,49.9,106.59,254.01,Single-ply,SBD,M
Boys,67.13,1,Daniel Camarillo,Blooming Grove,65.41,170.1,108.86,181.44,460.4,Single-ply,SBD,M
Boys,67.13,2,Decovan Echols,Mexia,66.59,181.44,92.99,176.9,451.32,Single-ply,SBD,M
Boys,67.13,3,DeAndre Jones,Dallas Life Oak Cliff,63.32,156.49,104.33,185.97,446.79,Single-ply,SBD,M
Boys,67.13,3,DeAndre Jones,Dallas Life Oak Cliff,63.32,156.49,104.33,185.97,446.79,Single-ply,SBD,M
Boys,67.13,4,Jt Jones,Teague,66.59,172.37,83.91,170.1,426.38,Single-ply,SBD,M
Boys,67.13,5,Keith Kayser,Milford,65.05,156.49,68.04,181.44,405.97,Single-ply,SBD,M
Boys,67.13,6,David Dilbeck,Blooming Grove,64.59,151.95,90.72,161.03,403.7,Single-ply,SBD,M
Boys,67.13,7,Nick Matthews,Dallas Life Oak Cliff,66.77,158.76,81.65,163.29,403.7,Single-ply,SBD,M
Boys,67.13,7,Nick Matthews,Dallas Life Oak Cliff,66.77,158.76,81.65,163.29,403.7,Single-ply,SBD,M
Boys,67.13,8,Ulises Ramirez,Fairfield,60.69,176.9,72.57,149.69,399.16,Single-ply,SBD,M
Boys,67.13,9,Nick Snodgrass,Blooming Grove,63.5,127.01,70.31,167.83,365.14,Single-ply,SBD,M
Boys,67.13,10,Colton Haven,Corsicana Mildred,64.05,136.08,77.11,145.15,358.34,Single-ply,SBD,M
Boys,67.13,11,Will Ferlet,Dawson,64.95,131.54,77.11,140.61,349.27,Single-ply,SBD,M
Boys,67.13,12,Jose Rodriguez,Fairfield,62.96,127.01,65.77,149.69,342.46,Single-ply,SBD,M
Boys,67.13,13,Garridan Henderson,Fairfield,66.68,136.08,61.23,131.54,328.85,Single-ply,SBD,M
Boys,67.13,14,Marcos Gonzalez,Mexia,62.6,115.67,70.31,122.47,308.44,Single-ply,SBD,M
Boys,74.84,1,Darius Dorsey,Mexia,73.84,197.31,122.47,195.04,514.83,Single-ply,SBD,M
Boys,74.84,2,Nick Mooneyham,Fairfield,69.4,167.83,88.45,170.1,426.38,Single-ply,SBD,M
Boys,74.84,3,Billy Humphries,Corsicana Mildred,74.84,147.42,97.52,154.22,399.16,Single-ply,SBD,M
Boys,74.84,4,Jordan Lynch,Dallas Life Oak Cliff,71.76,102.06,83.91,192.78,378.75,Single-ply,SBD,M
Boys,74.84,4,Jordan Lynch,Dallas Life Oak Cliff,71.76,102.06,83.91,192.78,378.75,Single-ply,SBD,M
Boys,74.84,5,Kordell Tilley,Dallas Life Oak Cliff,73.94,113.4,79.38,181.44,374.21,Single-ply,SBD,M
Boys,74.84,5,Kordell Tilley,Dallas Life Oak Cliff,73.94,113.4,79.38,181.44,374.21,Single-ply,SBD,M
Boys,74.84,6,Anthony Dargan,Ferris,74.03,127.01,83.91,145.15,356.07,Single-ply,SBD,M
Boys,74.84,7,Dustin Thompson,Corsicana Mildred,68.22,122.47,70.31,145.15,337.93,Single-ply,SBD,M
Boys,74.84,8,Daniel Balderas,Ferris,71.49,111.13,74.84,140.61,326.59,Single-ply,SBD,M
Boys,74.84,9,Jacob Smith,Red Oak Life,69.76,113.4,63.5,124.74,301.64,Single-ply,SBD,M
Boys,82.1,1,Tavion Hall,Kerens,81.65,256.28,154.22,269.89,680.39,Single-ply,SBD,M
Boys,82.1,2,Alberto Carrillo,Mexia,80.1,233.6,151.95,226.8,612.35,Single-ply,SBD,M
Boys,82.1,3,Mason Alacaz,Red Oak Life,80.1,192.78,113.4,188.24,494.42,Single-ply,SBD,M
Boys,82.1,4,Daniel Secrease,Dallas Life Oak Cliff,81.56,181.44,108.86,185.97,476.27,Single-ply,SBD,M
Boys,82.1,4,Daniel Secrease,Dallas Life Oak Cliff,81.56,181.44,108.86,185.97,476.27,Single-ply,SBD,M
Boys,89.81,5,Brandon Amaya,Fairfield,82.19,192.78,102.06,158.76,453.59,Single-ply,SBD,M
Boys,82.1,6,Slayden Morgan,Teague,77.66,158.76,88.45,185.97,433.18,Single-ply,SBD,M
Boys,82.1,7,Clay Riddle,Italy,80.56,136.08,79.38,136.08,351.53,Single-ply,SBD,M
Boys,89.81,1,Kyle Fortenberry,Italy,83.64,183.7,113.4,170.1,467.2,Single-ply,SBD,M
Boys,89.81,2,Hayden Roberts,Teague,84.37,181.44,86.18,181.44,449.06,Single-ply,SBD,M
Boys,89.81,3,Justin Horn #1,Corsicana Mildred,87.72,172.37,88.45,172.37,433.18,Single-ply,SBD,M
Boys,89.81,4,Blake Linscomb,Red Oak Life,83.55,158.76,77.11,158.76,394.63,Single-ply,SBD,M
Boys,89.81,5,Luis Solis,Ferris,86.09,145.15,86.18,161.03,392.36,Single-ply,SBD,M
Boys,89.81,6,Dustin Baker,Ferris,85.91,127.01,88.45,142.88,358.34,Single-ply,SBD,M
Boys,89.81,7,Schembach Nuepane,Red Oak Life,83.64,124.74,81.65,142.88,349.27,Single-ply,SBD,M
Boys,89.81,8,Gragory Strange,Milford,83.91,136.08,58.97,138.35,333.39,Single-ply,SBD,M
Boys,89.81,9,Blake Nasmith,Dawson,87.18,99.79,52.16,106.59,258.55,Single-ply,SBD,M
Boys,99.79,1,Keanu Fathal,Corsicana Mildred,91.35,226.8,136.08,204.12,566.99,Single-ply,SBD,M
Boys,99.79,2,Jacob Gomez,Teague,98.16,199.58,131.54,215.46,546.58,Single-ply,SBD,M
Boys,99.79,3,Eli Crawford,Kerens,95.25,199.58,108.86,226.8,535.24,Single-ply,SBD,M
Boys,99.79,4,Ricky Zamora,Corsicana Mildred,97.61,204.12,115.67,197.31,517.1,Single-ply,SBD,M
Boys,99.79,5,Paxton Bertrand,Ferris,96.8,195.04,111.13,206.38,512.56,Single-ply,SBD,M
Boys,99.79,6,Arron Pfleeger,Fairfield,97.16,199.58,106.59,192.78,498.95,Single-ply,SBD,M
Boys,99.79,7,Rahi Patel,Mexia,93.44,188.24,115.67,192.78,496.68,Single-ply,SBD,M
Boys,99.79,8,Rodrigo Morales,Teague,94.62,192.78,92.99,199.58,485.34,Single-ply,SBD,M
Boys,99.79,9,Josh Wiggins,Blooming Grove,94.35,181.44,108.86,192.78,483.08,Single-ply,SBD,M
Boys,99.79,10,Kenny Jones,Ferris,99.16,176.9,122.47,172.37,471.74,Single-ply,SBD,M
Boys,99.79,11,Xavier Cole,Blooming Grove,93.98,154.22,90.72,167.83,412.77,Single-ply,SBD,M
Boys,99.79,12,Gabriel Equia,Red Oak Life,95.35,183.7,88.45,138.35,410.5,Single-ply,SBD,M
Boys,109.77,1,Quavious Gamble,Mexia,106.32,290.3,156.49,272.16,718.94,Single-ply,SBD,M
Boys,109.77,2,Chauncey Rich,Red Oak Life,105.87,244.94,147.42,213.19,605.55,Single-ply,SBD,M
Boys,109.77,3,Jermal Warren,Dallas Life Oak Cliff,105.05,204.12,156.49,192.78,553.38,Single-ply,SBD,M
Boys,109.77,3,Jermal Warren,Dallas Life Oak Cliff,105.05,204.12,156.49,192.78,553.38,Single-ply,SBD,M
Boys,109.77,4,Jeremy Woods,Fairfield,105.41,226.8,117.93,181.44,526.17,Single-ply,SBD,M
Boys,109.77,5,Cesar Mancera,Ferris,103.24,197.31,102.06,165.56,464.93,Single-ply,SBD,M
Boys,109.77,6,Ricky Linton,Blooming Grove,104.51,176.9,108.86,172.37,458.13,Single-ply,SBD,M
Boys,109.77,7,Cole Schick,Fairfield,106.68,219.99,106.59,131.54,458.13,Single-ply,SBD,M
Boys,109.77,8,Carlos Venegas,Milford,103.78,151.95,106.59,181.44,439.98,Single-ply,SBD,M
Boys,109.77,9,Chris Barco,Teague,108.59,190.51,95.25,145.15,430.91,Single-ply,SBD,M
Boys,109.77,10,Timothy Collums,Corsicana Mildred,105.23,170.1,95.25,151.95,417.3,Single-ply,SBD,M
Boys,109.77,11,Rylan Wade,Dawson,103.6,136.08,74.84,138.35,349.27,Single-ply,SBD,M
Boys,109.77,DQ,Arkiel Winn,Mexia,101.15,226.8,,,,Single-ply,SBD,M
Boys,124.74,1,Ryan Mitchell,Teague,122.2,340.19,183.7,272.16,796.05,Single-ply,SBD,M
Boys,124.74,2,Juan Gomez,Ferris,123.1,199.58,88.45,167.83,455.86,Single-ply,SBD,M
Boys,124.74+,1,Michael Williams,Dawson,170.01,299.37,136.08,215.46,650.91,Single-ply,SBD,M
Boys,124.74+,2,Brandon Brumbelow,Kerens,128.09,238.14,140.61,195.04,573.79,Single-ply,SBD,M
Boys,124.74+,3,TreDereck Anglin,Mexia,149.32,215.46,122.47,213.19,551.11,Single-ply,SBD,M
Boys,124.74+,4,Tyler Roberson,Dallas Life Oak Cliff,161.21,174.63,115.67,181.44,471.74,Single-ply,SBD,M
Boys,124.74+,4,Tyler Roberson,Dallas Life Oak Cliff,161.21,174.63,115.67,181.44,471.74,Single-ply,SBD,M
Boys,124.74+,5,Thomas Ojeda,Ferris,149.41,167.83,88.45,195.04,451.32,Single-ply,SBD,M
Boys,124.74+,6,Daveyon Barnes,Dallas Life Oak Cliff,156.85,179.17,106.59,165.56,451.32,Single-ply,SBD,M
Boys,124.74+,6,Daveyon Barnes,Dallas Life Oak Cliff,156.85,179.17,106.59,165.56,451.32,Single-ply,SBD,M
Boys,124.74+,7,Cole Brumbelow,Kerens,140.7,170.1,92.99,181.44,444.52,Single-ply,SBD,M
Boys,124.74+,8,Caleb Carlile,Red Oak Life,126.01,147.42,90.72,165.56,403.7,Single-ply,SBD,M
Boys,124.74+,9,Thomas Weldon,Ferris,149.59,131.54,70.31,161.03,362.87,Single-ply,SBD,M
