Name,Color
Aaron Ecton,america
Adam Leidigh,finland
Albert Alvarado,red_to_white
Alberto Portillo,red
Alec Dorner,lightblue
Alexander Walters,gold
Alice Swift,rainbow
Allison Hind,red
Amanda Kohatsu,green
Amanda Wolff,green_to_gray
Andrew Herbert,purple
Armando Carreon,red
Arran Sullivan,red bold
Ashleigh Campbell,lightblue
Ben Gianacakos,pink
Blake Parado,green
Bobby Morgan #2,red
Bob Merkh,america
Boris Lerner,lightblue
Brady Stewart,america
Brian Goldstein #1,rainbow
Brittainy Chown,purple_to_turquoise
Brody Laybolt,royalblue
Bryan Hartsel,yellow
Carina Davis,pink
Carlos Cristan,carlos italic
Carter Claflin,lightblue_to_white
Celia Gomez,lightblue
Chad Penson,red_to_white
Charles Binkley,small-caps america
Chris Lentini,yellow_to_purple
Chris Lindsay,royalblue
Chris Meadows,red
Chrissy Castellano,lightpink
Christopher Young #1,darkgreen
Christy James-Moser,lightblue
Ciarra Hutton,turquoise
Dan Green,green
Daphne Zhang,red
Dave Baker,rainbow
David Osborn #1,gold
David O'Sullivan,rainbow
David Patterson #1,america bold
Dean Wyatt,lightblue
Dennis Barstow,lightblue
Dominique Fisher #1,red
Dustin Sixkiller,america
Dylan Mayer,finland
Ellen Seidel,lightblue
Erika Hipwell,red
Erika Stevens,red
Esther Lee,lightblue
Fardin Ahmed,lightblue
Garrett Fear,purple bold
Gemma Lucas,england
George LeBlanc,darkgreen
Gerren Short,blue_to_yellow
Greg Nuckols,helvetica
Hailie Slack,red_to_yellow
Halldór Jens Vilhjálmsson,small-caps iceland
Harrison Stickelman,yellow
Isabella Martin,rainbow
Ivy Knight,yellow
Jacob Winstead #1,blue_to_gold
James Range,red
James Rowe,red_to_white
James Skinner,lightblue
Jamie Christenson,small-caps red
Jason Legrand,neongreen
Jawon Garrison,red
Jeanne Murdock,pink_to_purple_to_blue
Jeanie Shellman,purple
Jeff Justo,bold
Jenn Rotsinger,rainbow
Jeremy Willis #1,red
Jeris Hall,royalblue bold comicsans
Jesica Swisher,red_to_white
Jessica Brown #1,purple_to_green
Jessica Pippen,red
Jessica Rogers,green_to_white
Joe Sullivan,lightblue
John Reynolds,purple
Jonathon Farill,america
Joseph Park,rainbow
Josh Enmark,small-caps neongreen
Josh Sutelman,all_red_top_down
Josh Walker #1,red
Jo Whiteley,purple
Julius Erwin,lightblue
Justin Jackson,lightblue algerian
Kai Ma,rainbow
Kalle Räsänen,finland
Kathryn Mohide,neongreen
Katie DeMartino,rainbow
Kayla Anderson #1,purple_to_silver
Kellin Lee,limegreen
Kirstie Armstead,pink_to_purple
Kris Lewis #1,rainbow
Kristen Bellon,purple
Kristy Hawkins,green
Kylee Craig,lightpink
Kyle McKee,yellow
Leigh Estrada,turquoise
Leonetta Richardson,yellow
Lisa Tai,lightpink
Lucinda Stansfield,red bold comicsans
Matt Pearce,small-caps letter-spacing-2 helvetica matt_gradient
Mauricio Velasquez,red
Megan Hill,pink teal-shadow
Michael Petyak,lightblue
Michael Vessia,purple small-caps letter-spacing-2
Michelle Leu,salmonpink
Michelle Sothen,lightpink
Mike Schollbach,yellow
Nathan Kim,red_to_white
Nikki Merson,pink_to_white
Ogden J Myklebust III,chartreuse_yellow
Patria Jimenez,millennial_pink_color_palette
Patrick Jeffries,america
Paul Jackson #1,royalblue
Peter Pantazopoulos,rainbow
Peter Spence,peter_spence
Phillip Lake,green
Ray Jimenez,royalblue
Rebecca Bachman,red
Reyhan Roybal,rainbow
Rich Sadiv,red
Rick Simmons,lightblue
Riley Presnell,purple
Robert Simmons #1,rainbow
Rob Hall,rob_hall
Rob Lineker,neongreen
Robyn Turnbull,rainbow
Ryan Baker-Sheehan,pink
Ryan Jones #1,gold bold
Ryan O'Neill,rainbow bold
Ryan Rubio,orange
Samantha Shinavier,pink_to_purple_to_blue
Sarah Wellberg,green
Sarah Wheal,lightblue
Sara Schiff,purple_to_green
Spencer Key,orange
Stefanie Cohen,bold red
Steve Denison,lightblue
Susan Salazar,lightblue
Tara Webber,green
Tenaya Tuteur,turquoise_to_magenta
Terrian Ashley,purple
Thomas Schwarz,red
Tom Kallas,red
Tommy O'Connor,ireland
Tracey Berg-Fulton,hotpink
Travis P. Rogers,lightblue
Trystan Oakley,green
Tu Le #1,blue_to_yellow
Tyson Andrews,neongreen
Vanessa Ferla,teal_to_white
Véronique Fradette,canada
Vincent Raia,red
Zachary Langdon,royalblue
Zachary Lockhart,red
Zachary Nathaniel Hall,royalblue
Zachary Voase,rainbow small-caps
Zahir Khudayarov,orange
