Name,Sex,WeightClassKg,BodyweightKg,Squat1Kg,Squat2Kg,Squat3Kg,Best3SquatKg,Bench1Kg,Bench2Kg,Bench3Kg,Best3BenchKg,Deadlift1Kg,Deadlift2Kg,Deadlift3Kg,Best3DeadliftKg,TotalKg,Place,Event,Equipment,Division
Max Bristow,M,67.5,66.8,160,170,-180,170,100,105,-107.5,105,220,230,-250,230,505,1,SBD,Single-ply,Open
Tom Jamieson,M,82.5,79.7,-190,195,200,200,132.5,-137.5,-137.5,132.5,190,200,-205,200,532.5,1,SBD,Single-ply,Open
John Mort,M,100,99.8,210,225,235,235,142.5,150,-152.5,150,210,225,240,240,625,1,SBD,Single-ply,Open
Robyn Gleeson,F,60,56.3,,,,,,,,,110,120,-125,120,120,1,D,Single-ply,Open
Ben Clarke,M,52,43.3,,,,,60,65,-72.5,65,,,,,65,1,B,Single-ply,Open
Tony Feltham,M,67.5,66.8,,,,,80,85,-90,85,,,,,85,1,B,Single-ply,Open
Tony Sommerville,M,90,83.3,,,,,140,145,150,150,,,,,150,1,B,Single-ply,Open
