Division,WeightClassKg,Place,Name,Team,BodyweightKg,Best3SquatKg,Best3BenchKg,Best3DeadliftKg,TotalKg,Equipment,Event,Sex
Boys,55.79,1,John Clerihew,Olney,51.8,142.88,86.18,156.49,385.55,Single-ply,SBD,M
Boys,51.71,2,Michael Ramsey,Cross Plains,48.81,131.54,65.77,147.42,344.73,Single-ply,SBD,M
Boys,55.79,3,Joey Salinas,Jacksboro,51.89,138.35,68.04,138.35,344.73,Single-ply,SBD,M
Boys,51.71,4,Randy Salinas,Bangs,51.53,113.4,72.57,129.27,315.25,Single-ply,SBD,M
Boys,51.71,5,Matthew Palmer,Bonham,50.35,97.52,63.5,120.2,281.23,Single-ply,SBD,M
Boys,51.71,6,Zachary Cain,Granbury,51.44,99.79,61.23,120.2,281.23,Single-ply,SBD,M
Boys,51.71,7,Sebastian Guerra,Aubrey,51.71,108.86,61.23,106.59,276.69,Single-ply,SBD,M
Boys,51.71,8,Aditya Misra,Oakridge School,51.35,104.33,52.16,115.67,272.16,Single-ply,SBD,M
Boys,51.71,9,Marty Berumen,Strawn,49.94,90.72,61.23,104.33,256.28,Single-ply,SBD,M
Boys,51.71,10,Austin Caldwell,Callisburg,49.62,102.06,47.63,104.33,254.01,Single-ply,SBD,M
Boys,51.71,11,Hunter Gammage,Coleman,50.35,86.18,49.9,108.86,244.94,Single-ply,SBD,M
Boys,51.71,12,Dylan Hooper,Oakridge School,50.53,92.99,47.63,95.25,235.87,Single-ply,SBD,M
Boys,51.71,DQ,Luis Berumen,Strawn,51.48,,,,,Single-ply,SBD,M
Boys,55.79,1,Aaron Pomerantz,Lewisville Marcus,55.34,154.22,83.91,149.69,387.82,Single-ply,SBD,M
Boys,55.79,2,Corey Crowell,Bangs,54.98,129.27,81.65,138.35,349.27,Single-ply,SBD,M
Boys,55.79,3,Alvin Cole,Brady,55.07,131.54,68.04,147.42,347,Single-ply,SBD,M
Boys,55.79,4,Colton McWilliams,Cross Plains,54.61,127.01,47.63,151.95,326.59,Single-ply,SBD,M
Boys,55.79,5,Ivan Karabanoff,Peaster,54.79,120.2,70.31,127.01,317.51,Single-ply,SBD,M
Boys,55.79,6,Sammy Henderson,Gordon,55.79,113.4,72.57,117.93,303.91,Single-ply,SBD,M
Boys,55.79,7,Nimo Vega,San Saba,53.25,111.13,58.97,127.01,297.1,Single-ply,SBD,M
Boys,55.79,8,Koby Parker,Pottsboro,54.61,111.13,77.11,102.06,290.3,Single-ply,SBD,M
Boys,55.79,9,Coleman Chance,Ponder,53.43,106.59,63.5,117.93,288.03,Single-ply,SBD,M
Boys,55.79,10,Perrin Hughes,Ponder,52.62,104.33,68.04,99.79,272.16,Single-ply,SBD,M
Boys,55.79,DQ,Brandon Gee,Ponder,55.25,,,,,Single-ply,SBD,M
Boys,59.87,DQ,Wesley Paul,Tuscola Jim Ned,55.97,,,,,Single-ply,SBD,M
Boys,59.87,1,Josiah Cansler,Perrin-Whitt,59.1,174.63,74.84,158.76,408.23,Single-ply,SBD,M
Boys,59.87,2,Taylor Baum,Coleman,59.69,147.42,99.79,149.69,396.89,Single-ply,SBD,M
Boys,67.13,3,Ray Lopez,Granbury,60.06,149.69,86.18,158.76,394.63,Single-ply,SBD,M
Boys,67.13,4,Adam Byrd,Wichita Falls Rider,60.1,136.08,86.18,167.83,390.09,Single-ply,SBD,M
Boys,59.87,5,JraMarquise DeGrate,Waco University,56.88,140.61,88.45,156.49,385.55,Single-ply,SBD,M
Boys,59.87,6,Stephen Steele,Pottsboro,58.88,149.69,77.11,154.22,381.02,Single-ply,SBD,M
Boys,59.87,7,Blake Dulaney,Bangs,59.06,149.69,83.91,147.42,381.02,Single-ply,SBD,M
Boys,59.87,8,Dakkota Murray,Brady,59.6,149.69,65.77,149.69,365.14,Single-ply,SBD,M
Boys,67.13,9,Bobby Wells,Strawn,60.06,136.08,79.38,149.69,365.14,Single-ply,SBD,M
Boys,59.87,10,Justin Medrano,Brady,58.42,102.06,92.99,136.08,331.12,Single-ply,SBD,M
Boys,59.87,11,Luis Flores,Chico,57.88,120.2,74.84,133.81,328.85,Single-ply,SBD,M
Boys,59.87,12,Chandler Gordon,Hillsboro,59.6,113.4,70.31,129.27,312.98,Single-ply,SBD,M
Boys,59.87,13,Samuel Rodriguez,Rising Star,59.78,113.4,65.77,124.74,303.91,Single-ply,SBD,M
Boys,59.87,14,Thomas Ramsey,Petrolia,59.24,124.74,63.5,111.13,299.37,Single-ply,SBD,M
Boys,59.87,15,Ty West,Perrin-Whitt,59.78,115.67,70.31,108.86,294.84,Single-ply,SBD,M
Boys,59.87,16,Tanner Welch,Petrolia,59.06,113.4,63.5,113.4,290.3,Single-ply,SBD,M
Boys,59.87,17,Tristan Owens,San Saba,57.24,81.65,47.63,117.93,247.21,Single-ply,SBD,M
Boys,59.87,DQ,Izaac Velasquez,Strawn,58.29,,,,,Single-ply,SBD,M
Boys,74.84,1,Tri Hoang,Wichita Falls City View,67.31,197.31,86.18,192.78,476.27,Single-ply,SBD,M
Boys,67.13,2,Antwan Coleman,Waco University,65.14,199.58,106.59,163.29,469.47,Single-ply,SBD,M
Boys,67.13,3,Zane Schrader,Olney,64.05,185.97,106.59,170.1,462.66,Single-ply,SBD,M
Boys,74.84,4,Victor Velazquez,Chico,67.36,170.1,88.45,197.31,455.86,Single-ply,SBD,M
Boys,67.13,5,Coy Hart,Venus,64.59,174.63,102.06,163.29,439.98,Single-ply,SBD,M
Boys,67.13,6,Nick Davila,Millsap,63.78,161.03,86.18,185.97,433.18,Single-ply,SBD,M
Boys,67.13,7,Tyler Sullivan,Petrolia,67.04,167.83,90.72,167.83,426.38,Single-ply,SBD,M
Boys,67.13,8,Michael McCullough,Brownwood,64.32,158.76,104.33,151.95,415.04,Single-ply,SBD,M
Boys,67.13,9,Colton Hill,Rising Star,60.42,149.69,81.65,181.44,412.77,Single-ply,SBD,M
Boys,67.13,10,Chris Hanke,Anson,66.5,158.76,88.45,165.56,412.77,Single-ply,SBD,M
Boys,67.13,11,Eric Rodriguez,Aubrey,63.78,174.63,83.91,149.69,408.23,Single-ply,SBD,M
Boys,67.13,12,Brayden Frank,Oakridge School,65.77,158.76,86.18,163.29,408.23,Single-ply,SBD,M
Boys,67.13,13,Will Morath,Petrolia,66.13,151.95,83.91,161.03,396.89,Single-ply,SBD,M
Boys,67.13,14,Jayson Alexander,Ponder,63.23,154.22,86.18,151.95,392.36,Single-ply,SBD,M
Boys,67.13,15,Jesse Herd,Jacksboro,64.86,145.15,83.91,149.69,378.75,Single-ply,SBD,M
Boys,67.13,16,Rodney Rice,Brady,66.13,127.01,90.72,154.22,371.95,Single-ply,SBD,M
Boys,67.13,17,Jacob Howeth,Tuscola Jim Ned,65.14,149.69,83.91,136.08,369.68,Single-ply,SBD,M
Boys,67.13,18,Daniel Sánchez,Rising Star,63.41,113.4,90.72,147.42,351.53,Single-ply,SBD,M
Boys,67.13,19,Jeff Reese,Tuscola Jim Ned,61.23,129.27,81.65,136.08,347,Single-ply,SBD,M
Boys,67.13,20,Jonathon Howeth,Tuscola Jim Ned,62.23,138.35,72.57,136.08,347,Single-ply,SBD,M
Boys,67.13,21,Michael Lanham,Coleman,66.13,120.2,74.84,136.08,331.12,Single-ply,SBD,M
Boys,67.13,22,Brooks Jones,Coleman,63.68,122.47,74.84,131.54,328.85,Single-ply,SBD,M
Boys,67.13,23,Tj Hibler,San Saba,63.87,117.93,68.04,136.08,322.05,Single-ply,SBD,M
Boys,67.13,24,Pj Hammonds,Coleman,67.04,102.06,61.23,127.01,290.3,Single-ply,SBD,M
Boys,67.13,25,Seth Rogers,Jacksboro,64.05,158.76,86.18,,244.94,Single-ply,SB,M
Boys,74.84,DQ,Dalton Pullin,Seymour,67.22,165.56,95.25,,,Single-ply,SB,M
Boys,67.13,DQ,Rene Rivas,Venus,64.5,,,,,Single-ply,SB,M
Boys,74.84,DQ,Randy Tucker,Perrin-Whitt,67.22,,,,,Single-ply,SB,M
Boys,67.13,DQ,Dustin Zyus,Gordon,65.14,136.08,,,,Single-ply,SB,M
Boys,74.84,1,Alex Cervantes,San Saba,68.95,213.19,113.4,235.87,562.45,Single-ply,SBD,M
Boys,74.84,2,Terrance Majors,Waco University,72.67,204.12,124.74,206.38,535.24,Single-ply,SBD,M
Boys,74.84,3,Allan Hale,San Saba,70.94,188.24,120.2,210.92,519.36,Single-ply,SBD,M
Boys,74.84,4,Parker Purvis,Strawn,74.48,192.78,129.27,181.44,503.49,Single-ply,SBD,M
Boys,74.84,5,Norman James,Wichita Falls City View,74.66,183.7,138.35,192.78,514.83,Single-ply,SBD,M
Boys,74.84,6,Dru Hull,Sadler S & S Cons,74.57,199.58,113.4,192.78,505.76,Single-ply,SBD,M
Boys,74.84,7,Gabe Huerta,Bridgeport,72.21,179.17,129.27,195.04,503.49,Single-ply,SBD,M
Boys,74.84,8,Ramon Salazar,Jacksboro,72.94,199.58,108.86,195.04,503.49,Single-ply,SBD,M
Boys,82.1,9,Justin Smith,Petrolia,75.02,199.58,113.4,190.51,503.49,Single-ply,SBD,M
Boys,74.84,10,Cody Jones,Ponder,74.3,181.44,99.79,190.51,471.74,Single-ply,SBD,M
Boys,74.84,11,Alec Apple,Rising Star,73.57,167.83,102.06,199.58,469.47,Single-ply,SBD,M
Boys,74.84,12,Dj Thomas,Jacksboro,73.48,181.44,90.72,190.51,462.66,Single-ply,SBD,M
Boys,74.84,13,Lucas D' Agostina,Oakridge School,72.76,163.29,92.99,185.97,442.25,Single-ply,SBD,M
Boys,74.84,14,Dylan Hannins,Coleman,68.31,145.15,90.72,176.9,412.77,Single-ply,SBD,M
Boys,74.84,15,Dakota Bomar,Cross Plains,71.12,151.95,74.84,183.7,410.5,Single-ply,SBD,M
Boys,74.84,16,Brenton Awbrey,Wichita Falls City View,68.67,147.42,102.06,142.88,392.36,Single-ply,SBD,M
Boys,74.84,17,Herik Bustamante,Rising Star,74.21,136.08,81.65,154.22,371.95,Single-ply,SBD,M
Boys,74.84,18,Marti Cervantes,San Saba,68.76,133.81,77.11,156.49,367.41,Single-ply,SBD,M
Boys,74.84,19,Christian Woolverton,Early,69.58,142.88,74.84,129.27,347,Single-ply,SBD,M
Boys,74.84,20,Adam Boyer,Brady,71.12,117.93,74.84,122.47,315.25,Single-ply,SBD,M
Boys,74.84,21,Jordan Watson,San Saba,71.85,102.06,72.57,122.47,297.1,Single-ply,SBD,M
Boys,74.84,22,Brandon Amstead,San Saba,68.22,86.18,65.77,113.4,265.35,Single-ply,SBD,M
Boys,74.84,23,Cass Jones,Tuscola Jim Ned,67.59,72.57,52.16,127.01,251.74,Single-ply,SBD,M
Boys,82.1,DQ,Clay Brown,Millsap,75.07,,,,,Single-ply,SBD,M
Boys,74.84,DQ,Logan Marchman,Ponder,67.49,,,,,Single-ply,SBD,M
Boys,82.1,1,Tony Larenas,Lewisville Marcus,81.1,238.14,151.95,204.12,594.21,Single-ply,SBD,M
Boys,82.1,2,Jacob McAnally,Brady,80.38,213.19,138.35,204.12,555.65,Single-ply,SBD,M
Boys,82.1,3,Isaac Jimenez,San Saba,80.56,195.04,115.67,233.6,544.31,Single-ply,SBD,M
Boys,82.1,4,Derrious Burns,Waco University,78.38,206.38,129.27,199.58,535.24,Single-ply,SBD,M
Boys,82.1,5,Jacob Hodges,Brady,79.83,213.19,111.13,204.12,528.44,Single-ply,SBD,M
Boys,82.1,6,Bobby Byrd,Decatur,75.93,213.19,111.13,188.24,512.56,Single-ply,SBD,M
Boys,82.1,7,Blake Haney,Decatur,79.92,190.51,117.93,204.12,512.56,Single-ply,SBD,M
Boys,82.1,8,Cody Alexander,Bonham,78.11,210.92,106.59,192.78,510.29,Single-ply,SBD,M
Boys,82.1,9,Carl Pendergrast,Rising Star,79.74,204.12,102.06,204.12,510.29,Single-ply,SBD,M
Boys,82.1,10,Levi Haggard,Bonham,80.74,201.85,117.93,181.44,501.22,Single-ply,SBD,M
Boys,82.1,11,Kyle Patterson,Ponder,80.92,192.78,122.47,163.29,478.54,Single-ply,SBD,M
Boys,82.1,12,Brandon Thompson,Jacksboro,77.66,181.44,102.06,188.24,471.74,Single-ply,SBD,M
Boys,82.1,13,Bodie Cokendopher,Petrolia,79.92,158.76,83.91,188.24,430.91,Single-ply,SBD,M
Boys,82.1,14,Jacob Rejcheniker,Tuscola Jim Ned,78.65,154.22,104.33,167.83,426.38,Single-ply,SBD,M
Boys,82.1,15,Blake Hammonds,Coleman,78.74,156.49,95.25,156.49,408.23,Single-ply,SBD,M
Boys,82.1,16,Keith Clardy,Early,78.2,133.81,79.38,138.35,351.53,Single-ply,SBD,M
Boys,82.1,17,Alex Montelongo,Gordon,79.02,113.4,90.72,142.88,347,Single-ply,SBD,M
Boys,82.1,18,Daniel Calderon,San Saba,77.66,115.67,68.04,136.08,319.78,Single-ply,SBD,M
Boys,82.1,DQ,Jacob Becuwite,Bangs,81.74,208.65,117.93,,,Single-ply,SBD,M
Boys,82.1,DQ,Andrew Ary,Brady,81.1,163.29,,,,Single-ply,SBD,M
Boys,89.81,1,Nathan Ferrara,Lewisville Marcus,88.81,238.14,145.15,219.99,603.28,Single-ply,SBD,M
Boys,89.81,2,Juan Quintana,Hillsboro,87.18,197.31,161.03,204.12,562.45,Single-ply,SBD,M
Boys,89.81,3,Nick Lemmond,Seymour,86.82,201.85,122.47,204.12,528.44,Single-ply,SBD,M
Boys,89.81,4,Dylan House,Pottsboro,87.82,208.65,108.86,204.12,521.63,Single-ply,SBD,M
Boys,89.81,5,Zack Watson,Bridgeport,89.09,204.12,122.47,195.04,521.63,Single-ply,SBD,M
Boys,89.81,6,Tanner Weyerts,San Saba,87.91,197.31,95.25,226.8,519.36,Single-ply,SBD,M
Boys,89.81,7,Max Palacio,San Saba,88.09,185.97,115.67,213.19,514.83,Single-ply,SBD,M
Boys,89.81,8,Cody Morrison,Callisburg,84.1,204.12,104.33,204.12,512.56,Single-ply,SBD,M
Boys,89.81,9,Angel Barrios,Coleman,86.64,197.31,142.88,170.1,510.29,Single-ply,SBD,M
Boys,89.81,10,Shelton Zarate,Coleman,89.45,188.24,124.74,197.31,510.29,Single-ply,SBD,M
Boys,89.81,11,Stryker Hunnicutt,Bonham,82.37,197.31,111.13,190.51,498.95,Single-ply,SBD,M
Boys,89.81,12,Stephen Plowman,Gordon,86.18,181.44,122.47,185.97,489.88,Single-ply,SBD,M
Boys,89.81,13,David Kennedy,Oakridge School,84.19,167.83,108.86,210.92,487.61,Single-ply,SBD,M
Boys,89.81,14,Sean Jones,Early,89.45,192.78,88.45,197.31,478.54,Single-ply,SBD,M
Boys,89.81,15,Jeff McClinton,Callisburg,82.46,195.04,95.25,181.44,471.74,Single-ply,SBD,M
Boys,89.81,16,Chance Bratcher,Sadler S & S Cons,82.37,192.78,104.33,167.83,464.93,Single-ply,SBD,M
Boys,89.81,17,Charlie Thomas,Coleman,87.18,158.76,113.4,192.78,464.93,Single-ply,SBD,M
Boys,89.81,18,Jose Avila,Brownwood,83.82,161.03,102.06,188.24,451.32,Single-ply,SBD,M
Boys,89.81,19,Jason Gann,Tuscola Jim Ned,87.72,183.7,97.52,158.76,439.98,Single-ply,SBD,M
Boys,89.81,20,Juan Carlos García,San Saba,84.01,149.69,88.45,174.63,412.77,Single-ply,SBD,M
Boys,89.81,21,Jessy Johnson,Perrin-Whitt,88.86,140.61,90.72,165.56,396.89,Single-ply,SBD,M
Boys,89.81,22,Robert Reeves,Brady,85.18,140.61,79.38,163.29,383.29,Single-ply,SBD,M
Boys,89.81,23,Isreal Torrez,Brady,88.54,131.54,79.38,136.08,347,Single-ply,SBD,M
Boys,99.79,DQ,Jerry Don Fincher,Perrin-Whitt,89.86,,,,,Single-ply,SBD,M
Boys,89.81,DQ,Scott Ramsey,Petrolia,87.82,185.97,90.72,,,Single-ply,SBD,M
Boys,89.81,DQ,Harrison Flinn,Pottsboro,82.83,183.7,,,,Single-ply,SBD,M
Boys,89.81,DQ,O'Shea Nolan,Wichita Falls City View,86.45,195.04,111.13,,,Single-ply,SBD,M
Boys,99.79,1,Eddie Avalos,Olney,97.16,272.16,142.88,226.8,641.83,Single-ply,SBD,M
Boys,99.79,2,Anthony Garcia,Wichita Falls City View,94.44,233.6,120.2,226.8,580.6,Single-ply,SBD,M
Boys,99.79,3,Austin Thomas,Cross Plains,95.71,244.94,120.2,208.65,573.79,Single-ply,SBD,M
Boys,99.79,4,Dominic Rosales,San Saba,97.89,215.46,131.54,222.26,569.26,Single-ply,SBD,M
Boys,99.79,5,Zack Martinez,Tuscola Jim Ned,96.16,226.8,138.35,190.51,555.65,Single-ply,SBD,M
Boys,99.79,6,Kenny DeLeon,Venus,98.07,222.26,113.4,208.65,544.31,Single-ply,SBD,M
Boys,99.79,7,Ej Lozada,Jacksboro,95.8,181.44,88.45,199.58,469.47,Single-ply,SBD,M
Boys,99.79,8,Austin Williamson,Jacksboro,91.26,183.7,117.93,163.29,464.93,Single-ply,SBD,M
Boys,99.79,9,Robby Patchin,Jacksboro,95.25,185.97,102.06,167.83,455.86,Single-ply,SBD,M
Boys,99.79,10,Jordan Boggs,Brady,93.71,192.78,88.45,172.37,453.59,Single-ply,SBD,M
Boys,99.79,DQ,Dakota Covington,Callisburg,91.99,172.37,108.86,,,Single-ply,SBD,M
Boys,99.79,DQ,Jonus Gutierrez,Granbury,91.72,,,,,Single-ply,SBD,M
Boys,99.79,DQ,Jared Smith,Petrolia,95.44,192.78,124.74,,,Single-ply,SBD,M
Boys,109.77,1,Sam Lopez,Bangs,109.36,244.94,127.01,201.85,573.79,Single-ply,SBD,M
Boys,109.77,2,Matthew Smith,Bridgeport,103.51,219.99,138.35,206.38,564.72,Single-ply,SBD,M
Boys,109.77,3,Javier Padilla,Bonham,100.24,210.92,142.88,206.38,560.19,Single-ply,SBD,M
Boys,109.77,4,Scott Blair,Anna,101.51,217.72,117.93,215.46,551.11,Single-ply,SBD,M
Boys,109.77,5,Will Sloan,San Saba,106.87,210.92,122.47,208.65,542.04,Single-ply,SBD,M
Boys,109.77,6,Jeff King,Cross Plains,105.69,206.38,124.74,192.78,523.9,Single-ply,SBD,M
Boys,109.77,7,Michael McKinnerney,San Saba,108.86,188.24,111.13,190.51,489.88,Single-ply,SBD,M
Boys,109.77,8,Slade Hanson,Anson,109.41,183.7,106.59,183.7,474,Single-ply,SBD,M
Boys,124.74,9,Matthew Tucker,Jacksboro,109.81,185.97,90.72,185.97,462.66,Single-ply,SBD,M
Boys,109.77,10,Edward Fierro,Hillsboro,105.78,179.17,108.86,165.56,453.59,Single-ply,SBD,M
Boys,109.77,11,Logan Smithson,Callisburg,101.51,158.76,97.52,170.1,426.38,Single-ply,SBD,M
Boys,109.77,12,Nathan Amstead,San Saba,109.13,163.29,86.18,167.83,417.3,Single-ply,SBD,M
Boys,109.77,13,Brian Rogers,San Saba,102.69,161.03,90.72,161.03,412.77,Single-ply,SBD,M
Boys,109.77,14,Wesley Gates,San Saba,104.51,138.35,65.77,115.67,319.78,Single-ply,SBD,M
Boys,109.77,DQ,Gene Griffin,Petrolia,102.87,,,,,Single-ply,SBD,M
Boys,109.77,DQ,Tyler Ashman,Ponder,108.05,226.8,,,,Single-ply,SBD,M
Boys,109.77,DQ,Grant Johnson,Oakridge School,100.97,156.49,,,,Single-ply,SBD,M
Boys,124.74,1,Damon Hinrichs,Millsap,114.4,272.16,192.78,231.33,696.26,Single-ply,SBD,M
Boys,124.74,2,Jarrett Anderson,Bangs,118.39,260.82,154.22,231.33,646.37,Single-ply,SBD,M
Boys,124.74,DQ,Joseph Pligrim,Granbury,111.31,,,,,Single-ply,SBD,M
Boys,124.74,4,Jake Barton,Callisburg,119.48,249.48,129.27,217.72,596.47,Single-ply,SBD,M
Boys,124.74,5,Jansen Fox,Rising Star,123.2,226.8,122.47,188.24,537.51,Single-ply,SBD,M
Boys,124.74+,6,Sebastian Esquivel,Bridgeport,124.96,190.51,151.95,190.51,532.97,Single-ply,SBD,M
Boys,124.74,7,Christian Perez,Brownwood,115.21,181.44,83.91,163.29,428.64,Single-ply,SBD,M
Boys,124.74,8,Dusty Parum,San Saba,116.21,158.76,99.79,167.83,426.38,Single-ply,SBD,M
Boys,124.74,9,Caleb Wilbourn,Brownwood,113.13,170.1,88.45,163.29,421.84,Single-ply,SBD,M
Boys,124.74,10,Dylan Rosales,San Saba,116.3,147.42,88.45,142.88,378.75,Single-ply,SBD,M
Boys,124.74,DQ,Ed Aguado,Anson,112.76,,,,,Single-ply,SBD,M
Boys,124.74,DQ,Jacob Johnson,Aubrey,111.31,,,,,Single-ply,SBD,M
Boys,124.74,DQ,Dakota Larson,Venus,116.12,231.33,,,,Single-ply,SBD,M
Boys,124.74,DQ,Connor Willis,Tuscola Jim Ned,114.4,154.22,90.72,,,Single-ply,SBD,M
Boys,124.74+,1,Josh Aguilar,Waco University,139.25,278.96,158.76,226.8,664.51,Single-ply,SBD,M
Boys,124.74+,2,Ben Hughes,Waco University,142.88,263.08,142.88,242.67,648.64,Single-ply,SBD,M
Boys,124.74+,3,Diego Montoya,San Saba,146.06,254.01,149.69,226.8,630.49,Single-ply,SBD,M
Boys,124.74+,4,Allen Hodge,Hillsboro,125.83,231.33,158.76,229.06,619.15,Single-ply,SBD,M
Boys,124.74+,5,Max Meador,Brady,149.69,258.55,133.81,210.92,603.28,Single-ply,SBD,M
Boys,124.74+,6,Ismael Martinez,Strawn,125.24,244.94,124.74,204.12,573.79,Single-ply,SBD,M
Boys,124.74+,7,Jeffrey Cooley,Jacksboro,134.17,233.6,124.74,195.04,553.38,Single-ply,SBD,M
Boys,124.74+,8,Edgar Salvador,Hillsboro,136.71,183.7,129.27,195.04,508.02,Single-ply,SBD,M
Boys,124.74+,DQ,Dempsey Dorris,Strawn,143.2,,,,,Single-ply,SBD,M
