Division,WeightClassKg,Place,Name,Team,BodyweightKg,Best3SquatKg,Best3BenchKg,Best3DeadliftKg,TotalKg,Equipment,Event,Sex
Boys,55.79,1,Fidencio Cruz,Dickinson,51.8,136.08,68.04,136.08,340.19,Single-ply,SBD,M
Boys,51.71,2,Jim Williams,Conroe The Woodlands,50.8,74.84,49.9,86.18,210.92,Single-ply,SBD,M
Boys,55.79,1,Kenny Nguyen,Dickinson,54.07,167.83,102.06,151.95,421.84,Single-ply,SBD,M
Boys,55.79,2,Jamahl Johnson,Houston Cypress Woods,53.8,142.88,74.84,158.76,376.48,Single-ply,SBD,M
Boys,55.79,3,Daniel Moreno #3,Dayton,55.57,136.08,74.84,149.69,360.61,Single-ply,SBD,M
Boys,55.79,4,Marcus Davis,Houston Washington,53.52,83.91,58.97,120.2,263.08,Single-ply,SBD,M
Boys,55.79,DQ,Charles Dickerson,Huffman Hargrave,54.7,,,,,Single-ply,SBD,M
Boys,59.87,1,Quentin Dodds,Dickinson,59.87,183.7,95.25,147.42,426.38,Single-ply,SBD,M
Boys,59.87,2,Andre Gonzalez,Katy Mayde Creek,59.87,154.22,90.72,151.95,396.89,Single-ply,SBD,M
Boys,67.13,1,Tyler Fuselier,Dayton,65.68,158.76,108.86,204.12,471.74,Single-ply,SBD,M
Boys,74.84,DQ,Bobby Goss,Dayton,67.36,,,,,Single-ply,SBD,M
Boys,67.13,3,Robert Sparks,Corrigan-Camden,64.41,161.03,102.06,183.7,446.79,Single-ply,SBD,M
Boys,67.13,4,Daniel LaTour,Dayton,63.78,145.15,97.52,165.56,408.23,Single-ply,SBD,M
Boys,67.13,5,Caffery Penn,Conroe The Woodlands,65.23,149.69,95.25,158.76,403.7,Single-ply,SBD,M
Boys,67.13,6,Dalton Goetzinger,Conroe The Woodlands,67.13,131.54,72.57,136.08,340.19,Single-ply,SBD,M
Boys,67.13,7,Dean Barbalias,Conroe The Woodlands,67.04,102.06,83.91,124.74,310.71,Single-ply,SBD,M
Boys,74.84,1,Colton Beardmore,Houston Cypress Woods,72.48,192.78,124.74,215.46,532.97,Single-ply,SBD,M
Boys,74.84,2,Victor Tran,Dickinson,73.66,226.8,117.93,183.7,528.44,Single-ply,SBD,M
Boys,74.84,3,Johnathon Bradfield,Katy Mayde Creek,73.66,183.7,131.54,206.38,521.63,Single-ply,SBD,M
Boys,74.84,4,Kevin Green,Katy Mayde Creek,70.94,204.12,113.4,188.24,505.76,Single-ply,SBD,M
Boys,82.1,5,Dominique Gasaway,Katy Mayde Creek,75.02,183.7,113.4,204.12,501.22,Single-ply,SBD,M
Boys,74.84,6,Chris Caballero,Corrigan-Camden,74.39,161.03,90.72,161.03,412.77,Single-ply,SBD,M
Boys,74.84,7,Andrew Harvey,Corrigan-Camden,68.13,161.03,72.57,165.56,399.16,Single-ply,SBD,M
Boys,74.84,DQ,Casem Noureddin,Houston Cypress Woods,74.66,170.1,,,,Single-ply,SBD,M
Boys,82.1,1,John Lee,Dickinson,80.47,235.87,108.86,213.19,557.92,Single-ply,SBD,M
Boys,82.1,2,Will Glover,Houston Cypress Woods,75.93,226.8,120.2,174.63,521.63,Single-ply,SBD,M
Boys,82.1,3,Hayden Armstrong,Corrigan-Camden,81.65,185.97,115.67,192.78,494.42,Single-ply,SBD,M
Boys,82.1,4,Tony Robinson,Dayton,78.02,192.78,113.4,185.97,492.15,Single-ply,SBD,M
Boys,82.1,5,Victor Villareal,Corrigan-Camden,79.56,181.44,108.86,161.03,451.32,Single-ply,SBD,M
Boys,82.1,6,Zach Reynolds,Katy Mayde Creek,76.93,158.76,108.86,163.29,430.91,Single-ply,SBD,M
Boys,82.1,7,Andrew Danheim,Conroe The Woodlands,78.02,167.83,99.79,156.49,424.11,Single-ply,SBD,M
Boys,82.1,8,Brandon Jones,Katy Mayde Creek,79.29,104.33,88.45,147.42,340.19,Single-ply,SBD,M
Boys,82.1,9,Eric Ramirez,Houston Washington,79.2,102.06,68.04,154.22,324.32,Single-ply,SBD,M
Boys,89.81,1,Byron Wells,Dickinson,85.91,240.4,149.69,272.16,662.24,Single-ply,SBD,M
Boys,99.79,2,Daylan Skidmore,Houston Cypress Woods,89.99,183.7,115.67,188.24,487.61,Single-ply,SBD,M
Boys,89.81,3,Dovanan Jackson,Dayton,89.09,185.97,124.74,170.1,480.81,Single-ply,SBD,M
Boys,89.81,4,Kevin Clements,Huffman Hargrave,86.18,156.49,111.13,181.44,449.06,Single-ply,SBD,M
Boys,89.81,5,Lyndell Robinson,Houston Washington,87.72,122.47,120.2,179.17,421.84,Single-ply,SBD,M
Boys,89.81,6,Colin Fuchigami,Conroe The Woodlands,85.28,127.01,90.72,165.56,383.29,Single-ply,SBD,M
Boys,89.81,DQ,Jared Moffett,Houston Cypress Woods,89.45,181.44,,,,Single-ply,SBD,M
Boys,99.79,1,Dylan Thompson,Houston Cypress Woods,98.25,229.06,161.03,233.6,623.69,Single-ply,SBD,M
Boys,99.79,2,Oscar Ramirez,Katy Mayde Creek,95.71,240.4,158.76,213.19,612.35,Single-ply,SBD,M
Boys,99.79,3,Emilio Ruiz,Corrigan-Camden,99.16,226.8,136.08,229.06,591.94,Single-ply,SBD,M
Boys,99.79,4,Derick Powell,Dayton,94.89,188.24,163.29,188.24,539.77,Single-ply,SBD,M
Boys,99.79,5,Carlos Inguanzo,Corrigan-Camden,98.88,181.44,108.86,181.44,471.74,Single-ply,SBD,M
Boys,99.79,6,Jimmy Hernandez,Huffman Hargrave,97.34,142.88,95.25,154.22,392.36,Single-ply,SBD,M
Boys,99.79,DQ,Luke Galuska,Huffman Hargrave,98.79,106.59,,,,Single-ply,SBD,M
Boys,109.77,1,Aaron Ripkowski,Dayton,109.77,272.16,204.12,272.16,748.43,Single-ply,SBD,M
Boys,109.77,2,Mark Armstrong,Corrigan-Camden,100.7,276.69,165.56,256.28,698.53,Single-ply,SBD,M
Boys,109.77,3,Lorenzo Castaneda,Dickinson,108.5,272.16,136.08,249.48,657.71,Single-ply,SBD,M
Boys,109.77,4,Charles Tousant,Dayton,100.88,215.46,104.33,208.65,528.44,Single-ply,SBD,M
Boys,109.77,5,Tyler Hall,Huffman Hargrave,108.86,188.24,124.74,204.12,517.1,Single-ply,SBD,M
Boys,109.77,6,Devontae Burrell,Corrigan-Camden,106.68,190.51,108.86,206.38,505.76,Single-ply,SBD,M
Boys,109.77,7,Coy Brown,Corrigan-Camden,106.32,208.65,104.33,170.1,483.08,Single-ply,SBD,M
Boys,109.77,8,Tristian Francis,Houston Washington,107.77,163.29,106.59,199.58,469.47,Single-ply,SBD,M
Boys,109.77,9,Ismail Hassan,Katy Mayde Creek,105.32,165.56,113.4,185.97,464.93,Single-ply,SBD,M
Boys,109.77,10,Tyler Rapp,Conroe The Woodlands,101.79,165.56,99.79,156.49,421.84,Single-ply,SBD,M
Boys,109.77,11,Kevin Butts,Conroe The Woodlands,104.87,117.93,97.52,136.08,351.53,Single-ply,SBD,M
Boys,109.77,DQ,Estevan Villarreal,Houston Cypress Woods,109.77,,,,,Single-ply,SBD,M
Boys,124.74,1,Quentin Marsh,Dickinson,124.56,249.48,165.56,244.94,659.98,Single-ply,SBD,M
Boys,124.74,2,Terran Alves,Houston Cypress Woods,121.2,238.14,156.49,238.14,632.76,Single-ply,SBD,M
Boys,124.74,3,Matt Oubre,Dayton,121.65,215.46,136.08,219.99,571.53,Single-ply,SBD,M
Boys,124.74,4,Marcos Torres,Katy Mayde Creek,112.22,226.8,136.08,192.78,555.65,Single-ply,SBD,M
Boys,124.74,5,Grant Bonnette,Conroe The Woodlands,110.5,197.31,106.59,170.1,474,Single-ply,SBD,M
Boys,124.74,6,Tim Silva,Conroe The Woodlands,116.12,149.69,92.99,161.03,403.7,Single-ply,SBD,M
Boys,124.74+,1,Mikal Fernandez,Houston Cypress Woods,137.8,317.51,138.35,219.99,675.85,Single-ply,SBD,M
Boys,124.74+,2,Tim Jenkins,Dickinson,131,278.96,145.15,226.8,650.91,Single-ply,SBD,M
Boys,124.74+,3,Dj Cratic,Corrigan-Camden,125.46,254.01,142.88,219.99,616.89,Single-ply,SBD,M
Boys,124.74+,4,Byron Williams,Dickinson,137.98,213.19,108.86,235.87,557.92,Single-ply,SBD,M
Boys,124.74+,5,Robbie Belk,Conroe The Woodlands,128.09,145.15,95.25,147.42,387.82,Single-ply,SBD,M
Boys,124.74+,DQ,Joe Lloreda,Dickinson,132,226.8,142.88,,,Single-ply,SBD,M
Junior Varsity,67.13,1,Justin Poole,Conroe The Woodlands,64.41,124.74,79.38,124.74,328.85,Single-ply,SBD,M
Junior Varsity,67.13,2,Kyle Mcbride,Dayton,62.05,106.59,70.31,120.2,297.1,Single-ply,SBD,M
Junior Varsity,67.13,3,Chris Kinzie,Conroe The Woodlands,64.77,102.06,68.04,111.13,281.23,Single-ply,SBD,M
Junior Varsity,74.84,1,Nathaniel Ozan,Dayton,73.75,172.37,77.11,176.9,426.38,Single-ply,SBD,M
Junior Varsity,74.84,2,Cuevas Cuevas,Corrigan-Camden,71.12,156.49,90.72,156.49,403.7,Single-ply,SBD,M
Junior Varsity,74.84,3,Daniel Dougles,Dayton,72.03,147.42,97.52,158.76,403.7,Single-ply,SBD,M
Junior Varsity,74.84,4,K Romero,Corrigan-Camden,69.94,156.49,79.38,156.49,392.36,Single-ply,SBD,M
Junior Varsity,74.84,5,Morrison Morrison,Corrigan-Camden,74.39,147.42,77.11,156.49,381.02,Single-ply,SBD,M
Junior Varsity,82.1,6,Gonzales Gonzales,Corrigan-Camden,74.93,147.42,79.38,142.88,369.68,Single-ply,SBD,M
Junior Varsity,74.84,7,Brandon McBride,Dayton,72.21,129.27,79.38,147.42,356.07,Single-ply,SBD,M
Junior Varsity,74.84,8,Rusty Rice,Dayton,72.76,120.2,77.11,136.08,333.39,Single-ply,SBD,M
Junior Varsity,74.84,9,Brent Huston,Dickinson,69.49,117.93,70.31,122.47,310.71,Single-ply,SBD,M
Junior Varsity,74.84,10,Mize Mize,Corrigan-Camden,70.85,117.93,68.04,113.4,299.37,Single-ply,SBD,M
Junior Varsity,74.84,DQ,Lucius Rhone,Dayton,70.76,151.95,79.38,133.81,,Single-ply,SBD,M
Junior Varsity,82.1,1,Kevin Barton,Dayton,76.75,172.37,92.99,176.9,442.25,Single-ply,SBD,M
Junior Varsity,82.1,2,Locke Locke,Corrigan-Camden,80.83,161.03,83.91,174.63,419.57,Single-ply,SBD,M
Junior Varsity,82.1,3,Tim Burley,Corrigan-Camden,80.74,147.42,72.57,174.63,394.63,Single-ply,SBD,M
Junior Varsity,82.1,DQ,Michael Dillingham,Dayton,80.29,172.37,,,,Single-ply,SBD,M
Junior Varsity,82.1,DQ,Jeremy Smith,Dayton,75.84,120.2,,,,Single-ply,SBD,M
Junior Varsity,89.81,1,Caesar Felipe,Corrigan-Camden,85,185.97,83.91,183.7,453.59,Single-ply,SBD,M
Junior Varsity,89.81,2,Chase Romero,Corrigan-Camden,83.91,174.63,97.52,156.49,428.64,Single-ply,SBD,M
Junior Varsity,89.81,3,Vance Vance,Corrigan-Camden,86.36,170.1,79.38,174.63,424.11,Single-ply,SBD,M
Junior Varsity,89.81,4,Zach Kapalski,Dayton,86.64,133.81,72.57,133.81,340.19,Single-ply,SBD,M
Junior Varsity,99.79,1,Cameron Eland,Dayton,92.17,195.04,122.47,190.51,508.02,Single-ply,SBD,M
Junior Varsity,99.79,2,Alexander Whitfield,Dickinson,94.98,149.69,90.72,172.37,412.77,Single-ply,SBD,M
Junior Varsity,99.79,3,Espino Isac,Dayton,98.52,142.88,106.59,163.29,412.77,Single-ply,SBD,M
Junior Varsity,99.79,4,Chad Brannon,Dayton,93.44,149.69,79.38,181.44,410.5,Single-ply,SBD,M
Junior Varsity,99.79,5,Willie Calderon,Dickinson,94.62,149.69,90.72,158.76,399.16,Single-ply,SBD,M
Junior Varsity,99.79,6,Llewely Dowdy,Dickinson,93.17,127.01,86.18,158.76,371.95,Single-ply,SBD,M
Junior Varsity,99.79,7,Jason Zgourides,Conroe The Woodlands,94.26,102.06,99.79,136.08,337.93,Single-ply,SBD,M
Junior Varsity,109.77,1,John Smith #12,Dayton,103.87,165.56,124.74,156.49,446.79,Single-ply,SBD,M
Junior Varsity,124.74,1,Daven Klein,Dickinson,114.67,195.04,111.13,176.9,483.08,Single-ply,SBD,M
Junior Varsity,124.74,2,Jacob Butterfield,Dayton,124.19,183.7,113.4,176.9,474,Single-ply,SBD,M
Junior Varsity,124.74,3,Adam Eubanks,Dickinson,112.85,183.7,97.52,165.56,446.79,Single-ply,SBD,M
Junior Varsity,124.74,4,Stephen Rodriques,Dayton,111.58,154.22,117.93,154.22,426.38,Single-ply,SBD,M
